{
  "warnings": [
    {
      "file": "/Users/xcodeserver/Library/Caches/XCSBuilder/Bots/cb51167496f8ae242407e58de305692e/Source/camlKit/Pods/Sodium/Sodium/Sodium.swift",
      "line": 12,
      "symbol": "Sodium",
      "symbol_kind": "source.lang.swift.decl.extension",
      "warning": "undocumented"
    },
    {
      "file": "/Users/xcodeserver/Library/Caches/XCSBuilder/Bots/cb51167496f8ae242407e58de305692e/Source/camlKit/Pods/TrustWalletCore/swift/Sources/Generated/Base58.swift",
      "line": 12,
      "symbol": "Base58",
      "symbol_kind": "source.lang.swift.decl.extension",
      "warning": "undocumented"
    },
    {
      "file": "/Users/xcodeserver/Library/Caches/XCSBuilder/Bots/cb51167496f8ae242407e58de305692e/Source/camlKit/Source/Clients/BetterCallDevClient.swift",
      "line": 12,
      "symbol": "BetterCallDevClient",
      "symbol_kind": "source.lang.swift.decl.class",
      "warning": "undocumented"
    },
    {
      "file": "/Users/xcodeserver/Library/Caches/XCSBuilder/Bots/cb51167496f8ae242407e58de305692e/Source/camlKit/Source/Clients/BetterCallDevClient.swift",
      "line": 14,
      "symbol": "BetterCallDevClient.BetterCallDevClientError",
      "symbol_kind": "source.lang.swift.decl.enum",
      "warning": "undocumented"
    },
    {
      "file": "/Users/xcodeserver/Library/Caches/XCSBuilder/Bots/cb51167496f8ae242407e58de305692e/Source/camlKit/Source/Clients/BetterCallDevClient.swift",
      "line": 15,
      "symbol": "BetterCallDevClient.BetterCallDevClientError.invalidURL",
      "symbol_kind": "source.lang.swift.decl.enumelement",
      "warning": "undocumented"
    },
    {
      "file": "/Users/xcodeserver/Library/Caches/XCSBuilder/Bots/cb51167496f8ae242407e58de305692e/Source/camlKit/Source/Clients/BetterCallDevClient.swift",
      "line": 16,
      "symbol": "BetterCallDevClient.BetterCallDevClientError.parseError(_:)",
      "symbol_kind": "source.lang.swift.decl.enumelement",
      "warning": "undocumented"
    },
    {
      "file": "/Users/xcodeserver/Library/Caches/XCSBuilder/Bots/cb51167496f8ae242407e58de305692e/Source/camlKit/Source/Clients/BetterCallDevClient.swift",
      "line": 23,
      "symbol": "BetterCallDevClient.init(networkService:config:)",
      "symbol_kind": "source.lang.swift.decl.function.method.instance",
      "warning": "undocumented"
    },
    {
      "file": "/Users/xcodeserver/Library/Caches/XCSBuilder/Bots/cb51167496f8ae242407e58de305692e/Source/camlKit/Source/Clients/BetterCallDevClient.swift",
      "line": 28,
      "symbol": "BetterCallDevClient.getMoreDetailedError(byHash:completion:)",
      "symbol_kind": "source.lang.swift.decl.function.method.instance",
      "warning": "undocumented"
    },
    {
      "file": "/Users/xcodeserver/Library/Caches/XCSBuilder/Bots/cb51167496f8ae242407e58de305692e/Source/camlKit/Source/Clients/TezosNodeClient.swift",
      "line": 50,
      "symbol": "TezosNodeClient.TezosNodeClientError.noDexterExchangeAddressFound",
      "symbol_kind": "source.lang.swift.decl.enumelement",
      "warning": "undocumented"
    },
    {
      "file": "/Users/xcodeserver/Library/Caches/XCSBuilder/Bots/cb51167496f8ae242407e58de305692e/Source/camlKit/Source/Clients/TezosNodeClient.swift",
      "line": 51,
      "symbol": "TezosNodeClient.TezosNodeClientError.michelsonParsing",
      "symbol_kind": "source.lang.swift.decl.enumelement",
      "warning": "undocumented"
    },
    {
      "file": "/Users/xcodeserver/Library/Caches/XCSBuilder/Bots/cb51167496f8ae242407e58de305692e/Source/camlKit/Source/Clients/TzKTClient.swift",
      "line": 12,
      "symbol": "TzKTClient",
      "symbol_kind": "source.lang.swift.decl.class",
      "warning": "undocumented"
    },
    {
      "file": "/Users/xcodeserver/Library/Caches/XCSBuilder/Bots/cb51167496f8ae242407e58de305692e/Source/camlKit/Source/Clients/TzKTClient.swift",
      "line": 14,
      "symbol": "TzKTClient.TzKTServiceError",
      "symbol_kind": "source.lang.swift.decl.enum",
      "warning": "undocumented"
    },
    {
      "file": "/Users/xcodeserver/Library/Caches/XCSBuilder/Bots/cb51167496f8ae242407e58de305692e/Source/camlKit/Source/Clients/TzKTClient.swift",
      "line": 15,
      "symbol": "TzKTClient.TzKTServiceError.invalidURL",
      "symbol_kind": "source.lang.swift.decl.enumelement",
      "warning": "undocumented"
    },
    {
      "file": "/Users/xcodeserver/Library/Caches/XCSBuilder/Bots/cb51167496f8ae242407e58de305692e/Source/camlKit/Source/Clients/TzKTClient.swift",
      "line": 16,
      "symbol": "TzKTClient.TzKTServiceError.parseError(_:)",
      "symbol_kind": "source.lang.swift.decl.enumelement",
      "warning": "undocumented"
    },
    {
      "file": "/Users/xcodeserver/Library/Caches/XCSBuilder/Bots/cb51167496f8ae242407e58de305692e/Source/camlKit/Source/Clients/TzKTClient.swift",
      "line": 34,
      "symbol": "TzKTClient.init(networkService:config:betterCallDevClient:)",
      "symbol_kind": "source.lang.swift.decl.function.method.instance",
      "warning": "undocumented"
    },
    {
      "file": "/Users/xcodeserver/Library/Caches/XCSBuilder/Bots/cb51167496f8ae242407e58de305692e/Source/camlKit/Source/Clients/TzKTClient.swift",
      "line": 44,
      "symbol": "TzKTClient.getOperation(byHash:completion:)",
      "symbol_kind": "source.lang.swift.decl.function.method.instance",
      "warning": "undocumented"
    },
    {
      "file": "/Users/xcodeserver/Library/Caches/XCSBuilder/Bots/cb51167496f8ae242407e58de305692e/Source/camlKit/Source/Clients/TzKTClient.swift",
      "line": 60,
      "symbol": "TzKTClient.waitForInjection(ofHash:completion:)",
      "symbol_kind": "source.lang.swift.decl.function.method.instance",
      "warning": "undocumented"
    },
    {
      "file": "/Users/xcodeserver/Library/Caches/XCSBuilder/Bots/cb51167496f8ae242407e58de305692e/Source/camlKit/Source/Clients/TzKTClient.swift",
      "line": 78,
      "symbol": "TzKTClient.cancelWait()",
      "symbol_kind": "source.lang.swift.decl.function.method.instance",
      "warning": "undocumented"
    },
    {
      "file": "/Users/xcodeserver/Library/Caches/XCSBuilder/Bots/cb51167496f8ae242407e58de305692e/Source/camlKit/Source/Clients/TzKTClient.swift",
      "line": 89,
      "symbol": "TzKTClient.clearHistory()",
      "symbol_kind": "source.lang.swift.decl.function.method.instance",
      "warning": "undocumented"
    },
    {
      "file": "/Users/xcodeserver/Library/Caches/XCSBuilder/Bots/cb51167496f8ae242407e58de305692e/Source/camlKit/Source/Clients/TzKTClient.swift",
      "line": 93,
      "symbol": "TzKTClient.currentTransactionHistory(filterByToken:orFilterByAddress:)",
      "symbol_kind": "source.lang.swift.decl.function.method.instance",
      "warning": "undocumented"
    },
    {
      "file": "/Users/xcodeserver/Library/Caches/XCSBuilder/Bots/cb51167496f8ae242407e58de305692e/Source/camlKit/Source/Clients/TzKTClient.swift",
      "line": 117,
      "symbol": "TzKTClient.refreshTransactionHistory(forAddress:andSupportedTokens:completion:)",
      "symbol_kind": "source.lang.swift.decl.function.method.instance",
      "warning": "undocumented"
    },
    {
      "file": "/Users/xcodeserver/Library/Caches/XCSBuilder/Bots/cb51167496f8ae242407e58de305692e/Source/camlKit/Source/Crypto/Prefix.swift",
      "line": 13,
      "symbol": "Prefix.Watermark",
      "symbol_kind": "source.lang.swift.decl.enum",
      "warning": "undocumented"
    },
    {
      "file": "/Users/xcodeserver/Library/Caches/XCSBuilder/Bots/cb51167496f8ae242407e58de305692e/Source/camlKit/Source/Crypto/Prefix.swift",
      "line": 14,
      "symbol": "Prefix.Watermark.operation",
      "symbol_kind": "source.lang.swift.decl.var.static",
      "warning": "undocumented"
    },
    {
      "file": "/Users/xcodeserver/Library/Caches/XCSBuilder/Bots/cb51167496f8ae242407e58de305692e/Source/camlKit/Source/Crypto/Prefix.swift",
      "line": 17,
      "symbol": "Prefix.Keys",
      "symbol_kind": "source.lang.swift.decl.enum",
      "warning": "undocumented"
    },
    {
      "file": "/Users/xcodeserver/Library/Caches/XCSBuilder/Bots/cb51167496f8ae242407e58de305692e/Source/camlKit/Source/Crypto/Prefix.swift",
      "line": 18,
      "symbol": "Prefix.Keys.Ed25519",
      "symbol_kind": "source.lang.swift.decl.enum",
      "warning": "undocumented"
    },
    {
      "file": "/Users/xcodeserver/Library/Caches/XCSBuilder/Bots/cb51167496f8ae242407e58de305692e/Source/camlKit/Source/Crypto/Prefix.swift",
      "line": 19,
      "symbol": "Prefix.Keys.Ed25519.public",
      "symbol_kind": "source.lang.swift.decl.var.static",
      "warning": "undocumented"
    },
    {
      "file": "/Users/xcodeserver/Library/Caches/XCSBuilder/Bots/cb51167496f8ae242407e58de305692e/Source/camlKit/Source/Crypto/Prefix.swift",
      "line": 20,
      "symbol": "Prefix.Keys.Ed25519.secret",
      "symbol_kind": "source.lang.swift.decl.var.static",
      "warning": "undocumented"
    },
    {
      "file": "/Users/xcodeserver/Library/Caches/XCSBuilder/Bots/cb51167496f8ae242407e58de305692e/Source/camlKit/Source/Crypto/Prefix.swift",
      "line": 21,
      "symbol": "Prefix.Keys.Ed25519.seed",
      "symbol_kind": "source.lang.swift.decl.var.static",
      "warning": "undocumented"
    },
    {
      "file": "/Users/xcodeserver/Library/Caches/XCSBuilder/Bots/cb51167496f8ae242407e58de305692e/Source/camlKit/Source/Crypto/Prefix.swift",
      "line": 22,
      "symbol": "Prefix.Keys.Ed25519.signature",
      "symbol_kind": "source.lang.swift.decl.var.static",
      "warning": "undocumented"
    },
    {
      "file": "/Users/xcodeserver/Library/Caches/XCSBuilder/Bots/cb51167496f8ae242407e58de305692e/Source/camlKit/Source/Crypto/Prefix.swift",
      "line": 25,
      "symbol": "Prefix.Keys.P256",
      "symbol_kind": "source.lang.swift.decl.enum",
      "warning": "undocumented"
    },
    {
      "file": "/Users/xcodeserver/Library/Caches/XCSBuilder/Bots/cb51167496f8ae242407e58de305692e/Source/camlKit/Source/Crypto/Prefix.swift",
      "line": 26,
      "symbol": "Prefix.Keys.P256.secret",
      "symbol_kind": "source.lang.swift.decl.var.static",
      "warning": "undocumented"
    },
    {
      "file": "/Users/xcodeserver/Library/Caches/XCSBuilder/Bots/cb51167496f8ae242407e58de305692e/Source/camlKit/Source/Crypto/Prefix.swift",
      "line": 27,
      "symbol": "Prefix.Keys.P256.public",
      "symbol_kind": "source.lang.swift.decl.var.static",
      "warning": "undocumented"
    },
    {
      "file": "/Users/xcodeserver/Library/Caches/XCSBuilder/Bots/cb51167496f8ae242407e58de305692e/Source/camlKit/Source/Crypto/Prefix.swift",
      "line": 28,
      "symbol": "Prefix.Keys.P256.signature",
      "symbol_kind": "source.lang.swift.decl.var.static",
      "warning": "undocumented"
    },
    {
      "file": "/Users/xcodeserver/Library/Caches/XCSBuilder/Bots/cb51167496f8ae242407e58de305692e/Source/camlKit/Source/Crypto/Prefix.swift",
      "line": 31,
      "symbol": "Prefix.Keys.Secp256k1",
      "symbol_kind": "source.lang.swift.decl.enum",
      "warning": "undocumented"
    },
    {
      "file": "/Users/xcodeserver/Library/Caches/XCSBuilder/Bots/cb51167496f8ae242407e58de305692e/Source/camlKit/Source/Crypto/Prefix.swift",
      "line": 32,
      "symbol": "Prefix.Keys.Secp256k1.public",
      "symbol_kind": "source.lang.swift.decl.var.static",
      "warning": "undocumented"
    },
    {
      "file": "/Users/xcodeserver/Library/Caches/XCSBuilder/Bots/cb51167496f8ae242407e58de305692e/Source/camlKit/Source/Crypto/Prefix.swift",
      "line": 33,
      "symbol": "Prefix.Keys.Secp256k1.secret",
      "symbol_kind": "source.lang.swift.decl.var.static",
      "warning": "undocumented"
    },
    {
      "file": "/Users/xcodeserver/Library/Caches/XCSBuilder/Bots/cb51167496f8ae242407e58de305692e/Source/camlKit/Source/Crypto/Prefix.swift",
      "line": 34,
      "symbol": "Prefix.Keys.Secp256k1.signature",
      "symbol_kind": "source.lang.swift.decl.var.static",
      "warning": "undocumented"
    },
    {
      "file": "/Users/xcodeserver/Library/Caches/XCSBuilder/Bots/cb51167496f8ae242407e58de305692e/Source/camlKit/Source/Crypto/Prefix.swift",
      "line": 38,
      "symbol": "Prefix.Address",
      "symbol_kind": "source.lang.swift.decl.enum",
      "warning": "undocumented"
    },
    {
      "file": "/Users/xcodeserver/Library/Caches/XCSBuilder/Bots/cb51167496f8ae242407e58de305692e/Source/camlKit/Source/Crypto/Prefix.swift",
      "line": 39,
      "symbol": "Prefix.Address.tz1",
      "symbol_kind": "source.lang.swift.decl.var.static",
      "warning": "undocumented"
    },
    {
      "file": "/Users/xcodeserver/Library/Caches/XCSBuilder/Bots/cb51167496f8ae242407e58de305692e/Source/camlKit/Source/Crypto/Prefix.swift",
      "line": 40,
      "symbol": "Prefix.Address.tz2",
      "symbol_kind": "source.lang.swift.decl.var.static",
      "warning": "undocumented"
    },
    {
      "file": "/Users/xcodeserver/Library/Caches/XCSBuilder/Bots/cb51167496f8ae242407e58de305692e/Source/camlKit/Source/Crypto/Prefix.swift",
      "line": 41,
      "symbol": "Prefix.Address.tz3",
      "symbol_kind": "source.lang.swift.decl.var.static",
      "warning": "undocumented"
    },
    {
      "file": "/Users/xcodeserver/Library/Caches/XCSBuilder/Bots/cb51167496f8ae242407e58de305692e/Source/camlKit/Source/Extensions/Array+extensions.swift",
      "line": 27,
      "symbol": "Array.init(hex:)",
      "symbol_kind": "source.lang.swift.decl.function.method.instance",
      "warning": "undocumented"
    },
    {
      "file": "/Users/xcodeserver/Library/Caches/XCSBuilder/Bots/cb51167496f8ae242407e58de305692e/Source/camlKit/Source/Extensions/Array+extensions.swift",
      "line": 65,
      "symbol": "Array.toHexString()",
      "symbol_kind": "source.lang.swift.decl.function.method.instance",
      "warning": "undocumented"
    },
    {
      "file": "/Users/xcodeserver/Library/Caches/XCSBuilder/Bots/cb51167496f8ae242407e58de305692e/Source/camlKit/Source/Extensions/Data+extensions.swift",
      "line": 14,
      "symbol": "Data.bytes",
      "symbol_kind": "source.lang.swift.decl.var.instance",
      "warning": "undocumented"
    },
    {
      "file": "/Users/xcodeserver/Library/Caches/XCSBuilder/Bots/cb51167496f8ae242407e58de305692e/Source/camlKit/Source/Extensions/Data+extensions.swift",
      "line": 18,
      "symbol": "Data.toHexString()",
      "symbol_kind": "source.lang.swift.decl.function.method.instance",
      "warning": "undocumented"
    },
    {
      "file": "/Users/xcodeserver/Library/Caches/XCSBuilder/Bots/cb51167496f8ae242407e58de305692e/Source/camlKit/Source/Extensions/Sodium+TezosCrypto.swift",
      "line": 14,
      "symbol": "Sodium.shared",
      "symbol_kind": "source.lang.swift.decl.var.static",
      "warning": "undocumented"
    },
    {
      "file": "/Users/xcodeserver/Library/Caches/XCSBuilder/Bots/cb51167496f8ae242407e58de305692e/Source/camlKit/Source/Models/BakingBad/BetterCallDevOperation.swift",
      "line": 11,
      "symbol": "BetterCallDevOperation",
      "symbol_kind": "source.lang.swift.decl.struct",
      "warning": "undocumented"
    },
    {
      "file": "/Users/xcodeserver/Library/Caches/XCSBuilder/Bots/cb51167496f8ae242407e58de305692e/Source/camlKit/Source/Models/BakingBad/BetterCallDevOperation.swift",
      "line": 12,
      "symbol": "BetterCallDevOperation.id",
      "symbol_kind": "source.lang.swift.decl.var.instance",
      "warning": "undocumented"
    },
    {
      "file": "/Users/xcodeserver/Library/Caches/XCSBuilder/Bots/cb51167496f8ae242407e58de305692e/Source/camlKit/Source/Models/BakingBad/BetterCallDevOperation.swift",
      "line": 13,
      "symbol": "BetterCallDevOperation.hash",
      "symbol_kind": "source.lang.swift.decl.var.instance",
      "warning": "undocumented"
    },
    {
      "file": "/Users/xcodeserver/Library/Caches/XCSBuilder/Bots/cb51167496f8ae242407e58de305692e/Source/camlKit/Source/Models/BakingBad/BetterCallDevOperation.swift",
      "line": 14,
      "symbol": "BetterCallDevOperation.counter",
      "symbol_kind": "source.lang.swift.decl.var.instance",
      "warning": "undocumented"
    },
    {
      "file": "/Users/xcodeserver/Library/Caches/XCSBuilder/Bots/cb51167496f8ae242407e58de305692e/Source/camlKit/Source/Models/BakingBad/BetterCallDevOperation.swift",
      "line": 15,
      "symbol": "BetterCallDevOperation.status",
      "symbol_kind": "source.lang.swift.decl.var.instance",
      "warning": "undocumented"
    },
    {
      "file": "/Users/xcodeserver/Library/Caches/XCSBuilder/Bots/cb51167496f8ae242407e58de305692e/Source/camlKit/Source/Models/BakingBad/BetterCallDevOperation.swift",
      "line": 16,
      "symbol": "BetterCallDevOperation.errors",
      "symbol_kind": "source.lang.swift.decl.var.instance",
      "warning": "undocumented"
    },
    {
      "file": "/Users/xcodeserver/Library/Caches/XCSBuilder/Bots/cb51167496f8ae242407e58de305692e/Source/camlKit/Source/Models/BakingBad/BetterCallDevOperation.swift",
      "line": 18,
      "symbol": "BetterCallDevOperation.isFailed()",
      "symbol_kind": "source.lang.swift.decl.function.method.instance",
      "warning": "undocumented"
    },
    {
      "file": "/Users/xcodeserver/Library/Caches/XCSBuilder/Bots/cb51167496f8ae242407e58de305692e/Source/camlKit/Source/Models/BakingBad/BetterCallDevOperation.swift",
      "line": 22,
      "symbol": "BetterCallDevOperation.containsError()",
      "symbol_kind": "source.lang.swift.decl.function.method.instance",
      "warning": "undocumented"
    },
    {
      "file": "/Users/xcodeserver/Library/Caches/XCSBuilder/Bots/cb51167496f8ae242407e58de305692e/Source/camlKit/Source/Models/BakingBad/BetterCallDevOperation.swift",
      "line": 45,
      "symbol": "BetterCallDevOperationError",
      "symbol_kind": "source.lang.swift.decl.struct",
      "warning": "undocumented"
    },
    {
      "file": "/Users/xcodeserver/Library/Caches/XCSBuilder/Bots/cb51167496f8ae242407e58de305692e/Source/camlKit/Source/Models/BakingBad/BetterCallDevOperation.swift",
      "line": 46,
      "symbol": "BetterCallDevOperationError.id",
      "symbol_kind": "source.lang.swift.decl.var.instance",
      "warning": "undocumented"
    },
    {
      "file": "/Users/xcodeserver/Library/Caches/XCSBuilder/Bots/cb51167496f8ae242407e58de305692e/Source/camlKit/Source/Models/BakingBad/BetterCallDevOperation.swift",
      "line": 47,
      "symbol": "BetterCallDevOperationError.title",
      "symbol_kind": "source.lang.swift.decl.var.instance",
      "warning": "undocumented"
    },
    {
      "file": "/Users/xcodeserver/Library/Caches/XCSBuilder/Bots/cb51167496f8ae242407e58de305692e/Source/camlKit/Source/Models/BakingBad/BetterCallDevOperation.swift",
      "line": 48,
      "symbol": "BetterCallDevOperationError.descr",
      "symbol_kind": "source.lang.swift.decl.var.instance",
      "warning": "undocumented"
    },
    {
      "file": "/Users/xcodeserver/Library/Caches/XCSBuilder/Bots/cb51167496f8ae242407e58de305692e/Source/camlKit/Source/Models/BakingBad/BetterCallDevOperation.swift",
      "line": 49,
      "symbol": "BetterCallDevOperationError.kind",
      "symbol_kind": "source.lang.swift.decl.var.instance",
      "warning": "undocumented"
    },
    {
      "file": "/Users/xcodeserver/Library/Caches/XCSBuilder/Bots/cb51167496f8ae242407e58de305692e/Source/camlKit/Source/Models/BakingBad/BetterCallDevOperation.swift",
      "line": 51,
      "symbol": "BetterCallDevOperationError.location",
      "symbol_kind": "source.lang.swift.decl.var.instance",
      "warning": "undocumented"
    },
    {
      "file": "/Users/xcodeserver/Library/Caches/XCSBuilder/Bots/cb51167496f8ae242407e58de305692e/Source/camlKit/Source/Models/BakingBad/BetterCallDevOperation.swift",
      "line": 52,
      "symbol": "BetterCallDevOperationError.with",
      "symbol_kind": "source.lang.swift.decl.var.instance",
      "warning": "undocumented"
    },
    {
      "file": "/Users/xcodeserver/Library/Caches/XCSBuilder/Bots/cb51167496f8ae242407e58de305692e/Source/camlKit/Source/Models/BakingBad/TzKTOperation.swift",
      "line": 11,
      "symbol": "TzKTOperation",
      "symbol_kind": "source.lang.swift.decl.struct",
      "warning": "undocumented"
    },
    {
      "file": "/Users/xcodeserver/Library/Caches/XCSBuilder/Bots/cb51167496f8ae242407e58de305692e/Source/camlKit/Source/Models/BakingBad/TzKTOperation.swift",
      "line": 12,
      "symbol": "TzKTOperation.type",
      "symbol_kind": "source.lang.swift.decl.var.instance",
      "warning": "undocumented"
    },
    {
      "file": "/Users/xcodeserver/Library/Caches/XCSBuilder/Bots/cb51167496f8ae242407e58de305692e/Source/camlKit/Source/Models/BakingBad/TzKTOperation.swift",
      "line": 13,
      "symbol": "TzKTOperation.id",
      "symbol_kind": "source.lang.swift.decl.var.instance",
      "warning": "undocumented"
    },
    {
      "file": "/Users/xcodeserver/Library/Caches/XCSBuilder/Bots/cb51167496f8ae242407e58de305692e/Source/camlKit/Source/Models/BakingBad/TzKTOperation.swift",
      "line": 14,
      "symbol": "TzKTOperation.level",
      "symbol_kind": "source.lang.swift.decl.var.instance",
      "warning": "undocumented"
    },
    {
      "file": "/Users/xcodeserver/Library/Caches/XCSBuilder/Bots/cb51167496f8ae242407e58de305692e/Source/camlKit/Source/Models/BakingBad/TzKTOperation.swift",
      "line": 15,
      "symbol": "TzKTOperation.timestamp",
      "symbol_kind": "source.lang.swift.decl.var.instance",
      "warning": "undocumented"
    },
    {
      "file": "/Users/xcodeserver/Library/Caches/XCSBuilder/Bots/cb51167496f8ae242407e58de305692e/Source/camlKit/Source/Models/BakingBad/TzKTOperation.swift",
      "line": 16,
      "symbol": "TzKTOperation.block",
      "symbol_kind": "source.lang.swift.decl.var.instance",
      "warning": "undocumented"
    },
    {
      "file": "/Users/xcodeserver/Library/Caches/XCSBuilder/Bots/cb51167496f8ae242407e58de305692e/Source/camlKit/Source/Models/BakingBad/TzKTOperation.swift",
      "line": 17,
      "symbol": "TzKTOperation.hash",
      "symbol_kind": "source.lang.swift.decl.var.instance",
      "warning": "undocumented"
    },
    {
      "file": "/Users/xcodeserver/Library/Caches/XCSBuilder/Bots/cb51167496f8ae242407e58de305692e/Source/camlKit/Source/Models/BakingBad/TzKTOperation.swift",
      "line": 18,
      "symbol": "TzKTOperation.counter",
      "symbol_kind": "source.lang.swift.decl.var.instance",
      "warning": "undocumented"
    },
    {
      "file": "/Users/xcodeserver/Library/Caches/XCSBuilder/Bots/cb51167496f8ae242407e58de305692e/Source/camlKit/Source/Models/BakingBad/TzKTOperation.swift",
      "line": 19,
      "symbol": "TzKTOperation.status",
      "symbol_kind": "source.lang.swift.decl.var.instance",
      "warning": "undocumented"
    },
    {
      "file": "/Users/xcodeserver/Library/Caches/XCSBuilder/Bots/cb51167496f8ae242407e58de305692e/Source/camlKit/Source/Models/BakingBad/TzKTOperation.swift",
      "line": 20,
      "symbol": "TzKTOperation.errors",
      "symbol_kind": "source.lang.swift.decl.var.instance",
      "warning": "undocumented"
    },
    {
      "file": "/Users/xcodeserver/Library/Caches/XCSBuilder/Bots/cb51167496f8ae242407e58de305692e/Source/camlKit/Source/Models/BakingBad/TzKTOperation.swift",
      "line": 22,
      "symbol": "TzKTOperation.isFailed()",
      "symbol_kind": "source.lang.swift.decl.function.method.instance",
      "warning": "undocumented"
    },
    {
      "file": "/Users/xcodeserver/Library/Caches/XCSBuilder/Bots/cb51167496f8ae242407e58de305692e/Source/camlKit/Source/Models/BakingBad/TzKTOperation.swift",
      "line": 26,
      "symbol": "TzKTOperation.containsError()",
      "symbol_kind": "source.lang.swift.decl.function.method.instance",
      "warning": "undocumented"
    },
    {
      "file": "/Users/xcodeserver/Library/Caches/XCSBuilder/Bots/cb51167496f8ae242407e58de305692e/Source/camlKit/Source/Models/BakingBad/TzKTOperation.swift",
      "line": 31,
      "symbol": "TzKTOperationError",
      "symbol_kind": "source.lang.swift.decl.struct",
      "warning": "undocumented"
    },
    {
      "file": "/Users/xcodeserver/Library/Caches/XCSBuilder/Bots/cb51167496f8ae242407e58de305692e/Source/camlKit/Source/Models/BakingBad/TzKTOperation.swift",
      "line": 32,
      "symbol": "TzKTOperationError.type",
      "symbol_kind": "source.lang.swift.decl.var.instance",
      "warning": "undocumented"
    },
    {
      "file": "/Users/xcodeserver/Library/Caches/XCSBuilder/Bots/cb51167496f8ae242407e58de305692e/Source/camlKit/Source/Models/BakingBad/TzKtTransaction.swift",
      "line": 11,
      "symbol": "TzKTTransaction",
      "symbol_kind": "source.lang.swift.decl.class",
      "warning": "undocumented"
    },
    {
      "file": "/Users/xcodeserver/Library/Caches/XCSBuilder/Bots/cb51167496f8ae242407e58de305692e/Source/camlKit/Source/Models/BakingBad/TzKtTransaction.swift",
      "line": 15,
      "symbol": "TzKTTransaction.TransactionStatus",
      "symbol_kind": "source.lang.swift.decl.enum",
      "warning": "undocumented"
    },
    {
      "file": "/Users/xcodeserver/Library/Caches/XCSBuilder/Bots/cb51167496f8ae242407e58de305692e/Source/camlKit/Source/Models/BakingBad/TzKtTransaction.swift",
      "line": 16,
      "symbol": "TzKTTransaction.TransactionStatus.applied",
      "symbol_kind": "source.lang.swift.decl.enumelement",
      "warning": "undocumented"
    },
    {
      "file": "/Users/xcodeserver/Library/Caches/XCSBuilder/Bots/cb51167496f8ae242407e58de305692e/Source/camlKit/Source/Models/BakingBad/TzKtTransaction.swift",
      "line": 17,
      "symbol": "TzKTTransaction.TransactionStatus.failed",
      "symbol_kind": "source.lang.swift.decl.enumelement",
      "warning": "undocumented"
    },
    {
      "file": "/Users/xcodeserver/Library/Caches/XCSBuilder/Bots/cb51167496f8ae242407e58de305692e/Source/camlKit/Source/Models/BakingBad/TzKtTransaction.swift",
      "line": 18,
      "symbol": "TzKTTransaction.TransactionStatus.backtracked",
      "symbol_kind": "source.lang.swift.decl.enumelement",
      "warning": "undocumented"
    },
    {
      "file": "/Users/xcodeserver/Library/Caches/XCSBuilder/Bots/cb51167496f8ae242407e58de305692e/Source/camlKit/Source/Models/BakingBad/TzKtTransaction.swift",
      "line": 19,
      "symbol": "TzKTTransaction.TransactionStatus.unknown",
      "symbol_kind": "source.lang.swift.decl.enumelement",
      "warning": "undocumented"
    },
    {
      "file": "/Users/xcodeserver/Library/Caches/XCSBuilder/Bots/cb51167496f8ae242407e58de305692e/Source/camlKit/Source/Models/BakingBad/TzKtTransaction.swift",
      "line": 22,
      "symbol": "TzKTTransaction.TransactionType",
      "symbol_kind": "source.lang.swift.decl.enum",
      "warning": "undocumented"
    },
    {
      "file": "/Users/xcodeserver/Library/Caches/XCSBuilder/Bots/cb51167496f8ae242407e58de305692e/Source/camlKit/Source/Models/BakingBad/TzKtTransaction.swift",
      "line": 23,
      "symbol": "TzKTTransaction.TransactionType.delegation",
      "symbol_kind": "source.lang.swift.decl.enumelement",
      "warning": "undocumented"
    },
    {
      "file": "/Users/xcodeserver/Library/Caches/XCSBuilder/Bots/cb51167496f8ae242407e58de305692e/Source/camlKit/Source/Models/BakingBad/TzKtTransaction.swift",
      "line": 24,
      "symbol": "TzKTTransaction.TransactionType.origination",
      "symbol_kind": "source.lang.swift.decl.enumelement",
      "warning": "undocumented"
    },
    {
      "file": "/Users/xcodeserver/Library/Caches/XCSBuilder/Bots/cb51167496f8ae242407e58de305692e/Source/camlKit/Source/Models/BakingBad/TzKtTransaction.swift",
      "line": 25,
      "symbol": "TzKTTransaction.TransactionType.transaction",
      "symbol_kind": "source.lang.swift.decl.enumelement",
      "warning": "undocumented"
    },
    {
      "file": "/Users/xcodeserver/Library/Caches/XCSBuilder/Bots/cb51167496f8ae242407e58de305692e/Source/camlKit/Source/Models/BakingBad/TzKtTransaction.swift",
      "line": 26,
      "symbol": "TzKTTransaction.TransactionType.reveal",
      "symbol_kind": "source.lang.swift.decl.enumelement",
      "warning": "undocumented"
    },
    {
      "file": "/Users/xcodeserver/Library/Caches/XCSBuilder/Bots/cb51167496f8ae242407e58de305692e/Source/camlKit/Source/Models/BakingBad/TzKtTransaction.swift",
      "line": 27,
      "symbol": "TzKTTransaction.TransactionType.unknown",
      "symbol_kind": "source.lang.swift.decl.enumelement",
      "warning": "undocumented"
    },
    {
      "file": "/Users/xcodeserver/Library/Caches/XCSBuilder/Bots/cb51167496f8ae242407e58de305692e/Source/camlKit/Source/Models/BakingBad/TzKtTransaction.swift",
      "line": 30,
      "symbol": "TzKTTransaction.TransactionSubType",
      "symbol_kind": "source.lang.swift.decl.enum",
      "warning": "undocumented"
    },
    {
      "file": "/Users/xcodeserver/Library/Caches/XCSBuilder/Bots/cb51167496f8ae242407e58de305692e/Source/camlKit/Source/Models/BakingBad/TzKtTransaction.swift",
      "line": 31,
      "symbol": "TzKTTransaction.TransactionSubType.send",
      "symbol_kind": "source.lang.swift.decl.enumelement",
      "warning": "undocumented"
    },
    {
      "file": "/Users/xcodeserver/Library/Caches/XCSBuilder/Bots/cb51167496f8ae242407e58de305692e/Source/camlKit/Source/Models/BakingBad/TzKtTransaction.swift",
      "line": 32,
      "symbol": "TzKTTransaction.TransactionSubType.nativeTokenSend",
      "symbol_kind": "source.lang.swift.decl.enumelement",
      "warning": "undocumented"
    },
    {
      "file": "/Users/xcodeserver/Library/Caches/XCSBuilder/Bots/cb51167496f8ae242407e58de305692e/Source/camlKit/Source/Models/BakingBad/TzKtTransaction.swift",
      "line": 33,
      "symbol": "TzKTTransaction.TransactionSubType.receive",
      "symbol_kind": "source.lang.swift.decl.enumelement",
      "warning": "undocumented"
    },
    {
      "file": "/Users/xcodeserver/Library/Caches/XCSBuilder/Bots/cb51167496f8ae242407e58de305692e/Source/camlKit/Source/Models/BakingBad/TzKtTransaction.swift",
      "line": 34,
      "symbol": "TzKTTransaction.TransactionSubType.nativeTokenReceive",
      "symbol_kind": "source.lang.swift.decl.enumelement",
      "warning": "undocumented"
    },
    {
      "file": "/Users/xcodeserver/Library/Caches/XCSBuilder/Bots/cb51167496f8ae242407e58de305692e/Source/camlKit/Source/Models/BakingBad/TzKtTransaction.swift",
      "line": 35,
      "symbol": "TzKTTransaction.TransactionSubType.exchangeXTZToToken",
      "symbol_kind": "source.lang.swift.decl.enumelement",
      "warning": "undocumented"
    },
    {
      "file": "/Users/xcodeserver/Library/Caches/XCSBuilder/Bots/cb51167496f8ae242407e58de305692e/Source/camlKit/Source/Models/BakingBad/TzKtTransaction.swift",
      "line": 36,
      "symbol": "TzKTTransaction.TransactionSubType.exchangeTokenToXTZ",
      "symbol_kind": "source.lang.swift.decl.enumelement",
      "warning": "undocumented"
    },
    {
      "file": "/Users/xcodeserver/Library/Caches/XCSBuilder/Bots/cb51167496f8ae242407e58de305692e/Source/camlKit/Source/Models/BakingBad/TzKtTransaction.swift",
      "line": 37,
      "symbol": "TzKTTransaction.TransactionSubType.exchangeTokenToXTZ_Internal",
      "symbol_kind": "source.lang.swift.decl.enumelement",
      "warning": "undocumented"
    },
    {
      "file": "/Users/xcodeserver/Library/Caches/XCSBuilder/Bots/cb51167496f8ae242407e58de305692e/Source/camlKit/Source/Models/BakingBad/TzKtTransaction.swift",
      "line": 38,
      "symbol": "TzKTTransaction.TransactionSubType.delegation",
      "symbol_kind": "source.lang.swift.decl.enumelement",
      "warning": "undocumented"
    },
    {
      "file": "/Users/xcodeserver/Library/Caches/XCSBuilder/Bots/cb51167496f8ae242407e58de305692e/Source/camlKit/Source/Models/BakingBad/TzKtTransaction.swift",
      "line": 39,
      "symbol": "TzKTTransaction.TransactionSubType.reveal",
      "symbol_kind": "source.lang.swift.decl.enumelement",
      "warning": "undocumented"
    },
    {
      "file": "/Users/xcodeserver/Library/Caches/XCSBuilder/Bots/cb51167496f8ae242407e58de305692e/Source/camlKit/Source/Models/BakingBad/TzKtTransaction.swift",
      "line": 40,
      "symbol": "TzKTTransaction.TransactionSubType.orignation",
      "symbol_kind": "source.lang.swift.decl.enumelement",
      "warning": "undocumented"
    },
    {
      "file": "/Users/xcodeserver/Library/Caches/XCSBuilder/Bots/cb51167496f8ae242407e58de305692e/Source/camlKit/Source/Models/BakingBad/TzKtTransaction.swift",
      "line": 41,
      "symbol": "TzKTTransaction.TransactionSubType.approve",
      "symbol_kind": "source.lang.swift.decl.enumelement",
      "warning": "undocumented"
    },
    {
      "file": "/Users/xcodeserver/Library/Caches/XCSBuilder/Bots/cb51167496f8ae242407e58de305692e/Source/camlKit/Source/Models/BakingBad/TzKtTransaction.swift",
      "line": 42,
      "symbol": "TzKTTransaction.TransactionSubType.unknown",
      "symbol_kind": "source.lang.swift.decl.enumelement",
      "warning": "undocumented"
    },
    {
      "file": "/Users/xcodeserver/Library/Caches/XCSBuilder/Bots/cb51167496f8ae242407e58de305692e/Source/camlKit/Source/Models/BakingBad/TzKtTransaction.swift",
      "line": 45,
      "symbol": "TzKTTransaction.TransactionLocation",
      "symbol_kind": "source.lang.swift.decl.struct",
      "warning": "undocumented"
    },
    {
      "file": "/Users/xcodeserver/Library/Caches/XCSBuilder/Bots/cb51167496f8ae242407e58de305692e/Source/camlKit/Source/Models/BakingBad/TzKtTransaction.swift",
      "line": 46,
      "symbol": "TzKTTransaction.TransactionLocation.alias",
      "symbol_kind": "source.lang.swift.decl.var.instance",
      "warning": "undocumented"
    },
    {
      "file": "/Users/xcodeserver/Library/Caches/XCSBuilder/Bots/cb51167496f8ae242407e58de305692e/Source/camlKit/Source/Models/BakingBad/TzKtTransaction.swift",
      "line": 47,
      "symbol": "TzKTTransaction.TransactionLocation.address",
      "symbol_kind": "source.lang.swift.decl.var.instance",
      "warning": "undocumented"
    },
    {
      "file": "/Users/xcodeserver/Library/Caches/XCSBuilder/Bots/cb51167496f8ae242407e58de305692e/Source/camlKit/Source/Models/BakingBad/TzKtTransaction.swift",
      "line": 50,
      "symbol": "TzKTTransaction.TransactionParameters",
      "symbol_kind": "source.lang.swift.decl.struct",
      "warning": "undocumented"
    },
    {
      "file": "/Users/xcodeserver/Library/Caches/XCSBuilder/Bots/cb51167496f8ae242407e58de305692e/Source/camlKit/Source/Models/BakingBad/TzKtTransaction.swift",
      "line": 51,
      "symbol": "TzKTTransaction.TransactionParameters.entrypoint",
      "symbol_kind": "source.lang.swift.decl.var.instance",
      "warning": "undocumented"
    },
    {
      "file": "/Users/xcodeserver/Library/Caches/XCSBuilder/Bots/cb51167496f8ae242407e58de305692e/Source/camlKit/Source/Models/BakingBad/TzKtTransaction.swift",
      "line": 52,
      "symbol": "TzKTTransaction.TransactionParameters.value",
      "symbol_kind": "source.lang.swift.decl.var.instance",
      "warning": "undocumented"
    },
    {
      "file": "/Users/xcodeserver/Library/Caches/XCSBuilder/Bots/cb51167496f8ae242407e58de305692e/Source/camlKit/Source/Models/BakingBad/TzKtTransaction.swift",
      "line": 60,
      "symbol": "TzKTTransaction.type",
      "symbol_kind": "source.lang.swift.decl.var.instance",
      "warning": "undocumented"
    },
    {
      "file": "/Users/xcodeserver/Library/Caches/XCSBuilder/Bots/cb51167496f8ae242407e58de305692e/Source/camlKit/Source/Models/BakingBad/TzKtTransaction.swift",
      "line": 61,
      "symbol": "TzKTTransaction.id",
      "symbol_kind": "source.lang.swift.decl.var.instance",
      "warning": "undocumented"
    },
    {
      "file": "/Users/xcodeserver/Library/Caches/XCSBuilder/Bots/cb51167496f8ae242407e58de305692e/Source/camlKit/Source/Models/BakingBad/TzKtTransaction.swift",
      "line": 62,
      "symbol": "TzKTTransaction.level",
      "symbol_kind": "source.lang.swift.decl.var.instance",
      "warning": "undocumented"
    },
    {
      "file": "/Users/xcodeserver/Library/Caches/XCSBuilder/Bots/cb51167496f8ae242407e58de305692e/Source/camlKit/Source/Models/BakingBad/TzKtTransaction.swift",
      "line": 63,
      "symbol": "TzKTTransaction.timestamp",
      "symbol_kind": "source.lang.swift.decl.var.instance",
      "warning": "undocumented"
    },
    {
      "file": "/Users/xcodeserver/Library/Caches/XCSBuilder/Bots/cb51167496f8ae242407e58de305692e/Source/camlKit/Source/Models/BakingBad/TzKtTransaction.swift",
      "line": 64,
      "symbol": "TzKTTransaction.hash",
      "symbol_kind": "source.lang.swift.decl.var.instance",
      "warning": "undocumented"
    },
    {
      "file": "/Users/xcodeserver/Library/Caches/XCSBuilder/Bots/cb51167496f8ae242407e58de305692e/Source/camlKit/Source/Models/BakingBad/TzKtTransaction.swift",
      "line": 65,
      "symbol": "TzKTTransaction.counter",
      "symbol_kind": "source.lang.swift.decl.var.instance",
      "warning": "undocumented"
    },
    {
      "file": "/Users/xcodeserver/Library/Caches/XCSBuilder/Bots/cb51167496f8ae242407e58de305692e/Source/camlKit/Source/Models/BakingBad/TzKtTransaction.swift",
      "line": 66,
      "symbol": "TzKTTransaction.initiater",
      "symbol_kind": "source.lang.swift.decl.var.instance",
      "warning": "undocumented"
    },
    {
      "file": "/Users/xcodeserver/Library/Caches/XCSBuilder/Bots/cb51167496f8ae242407e58de305692e/Source/camlKit/Source/Models/BakingBad/TzKtTransaction.swift",
      "line": 67,
      "symbol": "TzKTTransaction.sender",
      "symbol_kind": "source.lang.swift.decl.var.instance",
      "warning": "undocumented"
    },
    {
      "file": "/Users/xcodeserver/Library/Caches/XCSBuilder/Bots/cb51167496f8ae242407e58de305692e/Source/camlKit/Source/Models/BakingBad/TzKtTransaction.swift",
      "line": 68,
      "symbol": "TzKTTransaction.bakerFee",
      "symbol_kind": "source.lang.swift.decl.var.instance",
      "warning": "undocumented"
    },
    {
      "file": "/Users/xcodeserver/Library/Caches/XCSBuilder/Bots/cb51167496f8ae242407e58de305692e/Source/camlKit/Source/Models/BakingBad/TzKtTransaction.swift",
      "line": 69,
      "symbol": "TzKTTransaction.storageFee",
      "symbol_kind": "source.lang.swift.decl.var.instance",
      "warning": "undocumented"
    },
    {
      "file": "/Users/xcodeserver/Library/Caches/XCSBuilder/Bots/cb51167496f8ae242407e58de305692e/Source/camlKit/Source/Models/BakingBad/TzKtTransaction.swift",
      "line": 70,
      "symbol": "TzKTTransaction.allocationFee",
      "symbol_kind": "source.lang.swift.decl.var.instance",
      "warning": "undocumented"
    },
    {
      "file": "/Users/xcodeserver/Library/Caches/XCSBuilder/Bots/cb51167496f8ae242407e58de305692e/Source/camlKit/Source/Models/BakingBad/TzKtTransaction.swift",
      "line": 71,
      "symbol": "TzKTTransaction.target",
      "symbol_kind": "source.lang.swift.decl.var.instance",
      "warning": "undocumented"
    },
    {
      "file": "/Users/xcodeserver/Library/Caches/XCSBuilder/Bots/cb51167496f8ae242407e58de305692e/Source/camlKit/Source/Models/BakingBad/TzKtTransaction.swift",
      "line": 72,
      "symbol": "TzKTTransaction.prevDelegate",
      "symbol_kind": "source.lang.swift.decl.var.instance",
      "warning": "undocumented"
    },
    {
      "file": "/Users/xcodeserver/Library/Caches/XCSBuilder/Bots/cb51167496f8ae242407e58de305692e/Source/camlKit/Source/Models/BakingBad/TzKtTransaction.swift",
      "line": 73,
      "symbol": "TzKTTransaction.newDelegate",
      "symbol_kind": "source.lang.swift.decl.var.instance",
      "warning": "undocumented"
    },
    {
      "file": "/Users/xcodeserver/Library/Caches/XCSBuilder/Bots/cb51167496f8ae242407e58de305692e/Source/camlKit/Source/Models/BakingBad/TzKtTransaction.swift",
      "line": 74,
      "symbol": "TzKTTransaction.amount",
      "symbol_kind": "source.lang.swift.decl.var.instance",
      "warning": "undocumented"
    },
    {
      "file": "/Users/xcodeserver/Library/Caches/XCSBuilder/Bots/cb51167496f8ae242407e58de305692e/Source/camlKit/Source/Models/BakingBad/TzKtTransaction.swift",
      "line": 75,
      "symbol": "TzKTTransaction.parameters",
      "symbol_kind": "source.lang.swift.decl.var.instance",
      "warning": "undocumented"
    },
    {
      "file": "/Users/xcodeserver/Library/Caches/XCSBuilder/Bots/cb51167496f8ae242407e58de305692e/Source/camlKit/Source/Models/BakingBad/TzKtTransaction.swift",
      "line": 76,
      "symbol": "TzKTTransaction.status",
      "symbol_kind": "source.lang.swift.decl.var.instance",
      "warning": "undocumented"
    },
    {
      "file": "/Users/xcodeserver/Library/Caches/XCSBuilder/Bots/cb51167496f8ae242407e58de305692e/Source/camlKit/Source/Models/BakingBad/TzKtTransaction.swift",
      "line": 79,
      "symbol": "TzKTTransaction.subType",
      "symbol_kind": "source.lang.swift.decl.var.instance",
      "warning": "undocumented"
    },
    {
      "file": "/Users/xcodeserver/Library/Caches/XCSBuilder/Bots/cb51167496f8ae242407e58de305692e/Source/camlKit/Source/Models/BakingBad/TzKtTransaction.swift",
      "line": 80,
      "symbol": "TzKTTransaction.truncatedTimeInterval",
      "symbol_kind": "source.lang.swift.decl.var.instance",
      "warning": "undocumented"
    },
    {
      "file": "/Users/xcodeserver/Library/Caches/XCSBuilder/Bots/cb51167496f8ae242407e58de305692e/Source/camlKit/Source/Models/BakingBad/TzKtTransaction.swift",
      "line": 81,
      "symbol": "TzKTTransaction.token",
      "symbol_kind": "source.lang.swift.decl.var.instance",
      "warning": "undocumented"
    },
    {
      "file": "/Users/xcodeserver/Library/Caches/XCSBuilder/Bots/cb51167496f8ae242407e58de305692e/Source/camlKit/Source/Models/BakingBad/TzKtTransaction.swift",
      "line": 82,
      "symbol": "TzKTTransaction.secondaryToken",
      "symbol_kind": "source.lang.swift.decl.var.instance",
      "warning": "undocumented"
    },
    {
      "file": "/Users/xcodeserver/Library/Caches/XCSBuilder/Bots/cb51167496f8ae242407e58de305692e/Source/camlKit/Source/Models/BakingBad/TzKtTransaction.swift",
      "line": 83,
      "symbol": "TzKTTransaction.secondaryAmount",
      "symbol_kind": "source.lang.swift.decl.var.instance",
      "warning": "undocumented"
    },
    {
      "file": "/Users/xcodeserver/Library/Caches/XCSBuilder/Bots/cb51167496f8ae242407e58de305692e/Source/camlKit/Source/Models/BakingBad/TzKtTransaction.swift",
      "line": 84,
      "symbol": "TzKTTransaction.nativeTokenSendDestination",
      "symbol_kind": "source.lang.swift.decl.var.instance",
      "warning": "undocumented"
    },
    {
      "file": "/Users/xcodeserver/Library/Caches/XCSBuilder/Bots/cb51167496f8ae242407e58de305692e/Source/camlKit/Source/Models/BakingBad/TzKtTransaction.swift",
      "line": 86,
      "symbol": "TzKTTransaction.networkFee",
      "symbol_kind": "source.lang.swift.decl.var.instance",
      "warning": "undocumented"
    },
    {
      "file": "/Users/xcodeserver/Library/Caches/XCSBuilder/Bots/cb51167496f8ae242407e58de305692e/Source/camlKit/Source/Models/BakingBad/TzKtTransaction.swift",
      "line": 96,
      "symbol": "TzKTTransaction.CodingKeys",
      "symbol_kind": "source.lang.swift.decl.enum",
      "warning": "undocumented"
    },
    {
      "file": "/Users/xcodeserver/Library/Caches/XCSBuilder/Bots/cb51167496f8ae242407e58de305692e/Source/camlKit/Source/Models/BakingBad/TzKtTransaction.swift",
      "line": 97,
      "symbol": "TzKTTransaction.CodingKeys.allocationFee",
      "symbol_kind": "source.lang.swift.decl.enumelement",
      "warning": "undocumented"
    },
    {
      "file": "/Users/xcodeserver/Library/Caches/XCSBuilder/Bots/cb51167496f8ae242407e58de305692e/Source/camlKit/Source/Models/BakingBad/TzKtTransaction.swift",
      "line": 97,
      "symbol": "TzKTTransaction.CodingKeys.amount",
      "symbol_kind": "source.lang.swift.decl.enumelement",
      "warning": "undocumented"
    },
    {
      "file": "/Users/xcodeserver/Library/Caches/XCSBuilder/Bots/cb51167496f8ae242407e58de305692e/Source/camlKit/Source/Models/BakingBad/TzKtTransaction.swift",
      "line": 97,
      "symbol": "TzKTTransaction.CodingKeys.bakerFee",
      "symbol_kind": "source.lang.swift.decl.enumelement",
      "warning": "undocumented"
    },
    {
      "file": "/Users/xcodeserver/Library/Caches/XCSBuilder/Bots/cb51167496f8ae242407e58de305692e/Source/camlKit/Source/Models/BakingBad/TzKtTransaction.swift",
      "line": 97,
      "symbol": "TzKTTransaction.CodingKeys.counter",
      "symbol_kind": "source.lang.swift.decl.enumelement",
      "warning": "undocumented"
    },
    {
      "file": "/Users/xcodeserver/Library/Caches/XCSBuilder/Bots/cb51167496f8ae242407e58de305692e/Source/camlKit/Source/Models/BakingBad/TzKtTransaction.swift",
      "line": 97,
      "symbol": "TzKTTransaction.CodingKeys.hash",
      "symbol_kind": "source.lang.swift.decl.enumelement",
      "warning": "undocumented"
    },
    {
      "file": "/Users/xcodeserver/Library/Caches/XCSBuilder/Bots/cb51167496f8ae242407e58de305692e/Source/camlKit/Source/Models/BakingBad/TzKtTransaction.swift",
      "line": 97,
      "symbol": "TzKTTransaction.CodingKeys.id",
      "symbol_kind": "source.lang.swift.decl.enumelement",
      "warning": "undocumented"
    },
    {
      "file": "/Users/xcodeserver/Library/Caches/XCSBuilder/Bots/cb51167496f8ae242407e58de305692e/Source/camlKit/Source/Models/BakingBad/TzKtTransaction.swift",
      "line": 97,
      "symbol": "TzKTTransaction.CodingKeys.initiater",
      "symbol_kind": "source.lang.swift.decl.enumelement",
      "warning": "undocumented"
    },
    {
      "file": "/Users/xcodeserver/Library/Caches/XCSBuilder/Bots/cb51167496f8ae242407e58de305692e/Source/camlKit/Source/Models/BakingBad/TzKtTransaction.swift",
      "line": 97,
      "symbol": "TzKTTransaction.CodingKeys.level",
      "symbol_kind": "source.lang.swift.decl.enumelement",
      "warning": "undocumented"
    },
    {
      "file": "/Users/xcodeserver/Library/Caches/XCSBuilder/Bots/cb51167496f8ae242407e58de305692e/Source/camlKit/Source/Models/BakingBad/TzKtTransaction.swift",
      "line": 97,
      "symbol": "TzKTTransaction.CodingKeys.newDelegate",
      "symbol_kind": "source.lang.swift.decl.enumelement",
      "warning": "undocumented"
    },
    {
      "file": "/Users/xcodeserver/Library/Caches/XCSBuilder/Bots/cb51167496f8ae242407e58de305692e/Source/camlKit/Source/Models/BakingBad/TzKtTransaction.swift",
      "line": 97,
      "symbol": "TzKTTransaction.CodingKeys.parameters",
      "symbol_kind": "source.lang.swift.decl.enumelement",
      "warning": "undocumented"
    },
    {
      "file": "/Users/xcodeserver/Library/Caches/XCSBuilder/Bots/cb51167496f8ae242407e58de305692e/Source/camlKit/Source/Models/BakingBad/TzKtTransaction.swift",
      "line": 97,
      "symbol": "TzKTTransaction.CodingKeys.prevDelegate",
      "symbol_kind": "source.lang.swift.decl.enumelement",
      "warning": "undocumented"
    },
    {
      "file": "/Users/xcodeserver/Library/Caches/XCSBuilder/Bots/cb51167496f8ae242407e58de305692e/Source/camlKit/Source/Models/BakingBad/TzKtTransaction.swift",
      "line": 97,
      "symbol": "TzKTTransaction.CodingKeys.sender",
      "symbol_kind": "source.lang.swift.decl.enumelement",
      "warning": "undocumented"
    },
    {
      "file": "/Users/xcodeserver/Library/Caches/XCSBuilder/Bots/cb51167496f8ae242407e58de305692e/Source/camlKit/Source/Models/BakingBad/TzKtTransaction.swift",
      "line": 97,
      "symbol": "TzKTTransaction.CodingKeys.status",
      "symbol_kind": "source.lang.swift.decl.enumelement",
      "warning": "undocumented"
    },
    {
      "file": "/Users/xcodeserver/Library/Caches/XCSBuilder/Bots/cb51167496f8ae242407e58de305692e/Source/camlKit/Source/Models/BakingBad/TzKtTransaction.swift",
      "line": 97,
      "symbol": "TzKTTransaction.CodingKeys.storageFee",
      "symbol_kind": "source.lang.swift.decl.enumelement",
      "warning": "undocumented"
    },
    {
      "file": "/Users/xcodeserver/Library/Caches/XCSBuilder/Bots/cb51167496f8ae242407e58de305692e/Source/camlKit/Source/Models/BakingBad/TzKtTransaction.swift",
      "line": 97,
      "symbol": "TzKTTransaction.CodingKeys.subType",
      "symbol_kind": "source.lang.swift.decl.enumelement",
      "warning": "undocumented"
    },
    {
      "file": "/Users/xcodeserver/Library/Caches/XCSBuilder/Bots/cb51167496f8ae242407e58de305692e/Source/camlKit/Source/Models/BakingBad/TzKtTransaction.swift",
      "line": 97,
      "symbol": "TzKTTransaction.CodingKeys.target",
      "symbol_kind": "source.lang.swift.decl.enumelement",
      "warning": "undocumented"
    },
    {
      "file": "/Users/xcodeserver/Library/Caches/XCSBuilder/Bots/cb51167496f8ae242407e58de305692e/Source/camlKit/Source/Models/BakingBad/TzKtTransaction.swift",
      "line": 97,
      "symbol": "TzKTTransaction.CodingKeys.timestamp",
      "symbol_kind": "source.lang.swift.decl.enumelement",
      "warning": "undocumented"
    },
    {
      "file": "/Users/xcodeserver/Library/Caches/XCSBuilder/Bots/cb51167496f8ae242407e58de305692e/Source/camlKit/Source/Models/BakingBad/TzKtTransaction.swift",
      "line": 97,
      "symbol": "TzKTTransaction.CodingKeys.type",
      "symbol_kind": "source.lang.swift.decl.enumelement",
      "warning": "undocumented"
    },
    {
      "file": "/Users/xcodeserver/Library/Caches/XCSBuilder/Bots/cb51167496f8ae242407e58de305692e/Source/camlKit/Source/Models/BakingBad/TzKtTransaction.swift",
      "line": 100,
      "symbol": "TzKTTransaction.init(type:id:level:timestamp:hash:counter:initiater:sender:bakerFee:storageFee:allocationFee:target:prevDelegate:newDelegate:amount:parameters:status:)",
      "symbol_kind": "source.lang.swift.decl.function.method.instance",
      "warning": "undocumented"
    },
    {
      "file": "/Users/xcodeserver/Library/Caches/XCSBuilder/Bots/cb51167496f8ae242407e58de305692e/Source/camlKit/Source/Models/BakingBad/TzKtTransaction.swift",
      "line": 262,
      "symbol": "TzKTTransaction.tokenForTarget(address:tokens:)",
      "symbol_kind": "source.lang.swift.decl.function.method.instance",
      "warning": "undocumented"
    },
    {
      "file": "/Users/xcodeserver/Library/Caches/XCSBuilder/Bots/cb51167496f8ae242407e58de305692e/Source/camlKit/Source/Models/BakingBad/TzKtTransaction.swift",
      "line": 288,
      "symbol": "TzKTTransaction.tokenTransferAmount(ofToken:)",
      "symbol_kind": "source.lang.swift.decl.function.method.instance",
      "warning": "undocumented"
    },
    {
      "file": "/Users/xcodeserver/Library/Caches/XCSBuilder/Bots/cb51167496f8ae242407e58de305692e/Source/camlKit/Source/Models/BakingBad/TzKtTransaction.swift",
      "line": 320,
      "symbol": "TzKTTransaction.primaryAmountForTokenToXTZ()",
      "symbol_kind": "source.lang.swift.decl.function.method.instance",
      "warning": "undocumented"
    },
    {
      "file": "/Users/xcodeserver/Library/Caches/XCSBuilder/Bots/cb51167496f8ae242407e58de305692e/Source/camlKit/Source/Models/BakingBad/TzKtTransaction.swift",
      "line": 328,
      "symbol": "TzKTTransaction.secondaryAmountForTokenToXTZ(usersAddress:)",
      "symbol_kind": "source.lang.swift.decl.function.method.instance",
      "warning": "undocumented"
    },
    {
      "file": "/Users/xcodeserver/Library/Caches/XCSBuilder/Bots/cb51167496f8ae242407e58de305692e/Source/camlKit/Source/Models/BakingBad/TzKtTransaction.swift",
      "line": 336,
      "symbol": "TzKTTransaction.faTokenSendDestination()",
      "symbol_kind": "source.lang.swift.decl.function.method.instance",
      "warning": "undocumented"
    },
    {
      "file": "/Users/xcodeserver/Library/Caches/XCSBuilder/Bots/cb51167496f8ae242407e58de305692e/Source/camlKit/Source/Models/Config/TezosNodeClientConfig.swift",
      "line": 18,
      "symbol": "TezosNodeClientConfig.NetworkType.mainnet",
      "symbol_kind": "source.lang.swift.decl.enumelement",
      "warning": "undocumented"
    },
    {
      "file": "/Users/xcodeserver/Library/Caches/XCSBuilder/Bots/cb51167496f8ae242407e58de305692e/Source/camlKit/Source/Models/Config/TezosNodeClientConfig.swift",
      "line": 19,
      "symbol": "TezosNodeClientConfig.NetworkType.testnet",
      "symbol_kind": "source.lang.swift.decl.enumelement",
      "warning": "undocumented"
    },
    {
      "file": "/Users/xcodeserver/Library/Caches/XCSBuilder/Bots/cb51167496f8ae242407e58de305692e/Source/camlKit/Source/Models/Config/TezosNodeClientConfig.swift",
      "line": 26,
      "symbol": "TezosNodeClientConfig.defaultMainnetURLs",
      "symbol_kind": "source.lang.swift.decl.struct",
      "warning": "undocumented"
    },
    {
      "file": "/Users/xcodeserver/Library/Caches/XCSBuilder/Bots/cb51167496f8ae242407e58de305692e/Source/camlKit/Source/Models/Config/TezosNodeClientConfig.swift",
      "line": 44,
      "symbol": "TezosNodeClientConfig.defaultTestnetURLs",
      "symbol_kind": "source.lang.swift.decl.struct",
      "warning": "undocumented"
    },
    {
      "file": "/Users/xcodeserver/Library/Caches/XCSBuilder/Bots/cb51167496f8ae242407e58de305692e/Source/camlKit/Source/Models/Michelson.swift",
      "line": 15,
      "symbol": "MichelsonConstant.prim",
      "symbol_kind": "source.lang.swift.decl.enumelement",
      "warning": "undocumented"
    },
    {
      "file": "/Users/xcodeserver/Library/Caches/XCSBuilder/Bots/cb51167496f8ae242407e58de305692e/Source/camlKit/Source/Models/Michelson.swift",
      "line": 16,
      "symbol": "MichelsonConstant.args",
      "symbol_kind": "source.lang.swift.decl.enumelement",
      "warning": "undocumented"
    },
    {
      "file": "/Users/xcodeserver/Library/Caches/XCSBuilder/Bots/cb51167496f8ae242407e58de305692e/Source/camlKit/Source/Models/Michelson.swift",
      "line": 17,
      "symbol": "MichelsonConstant.bytes",
      "symbol_kind": "source.lang.swift.decl.enumelement",
      "warning": "undocumented"
    },
    {
      "file": "/Users/xcodeserver/Library/Caches/XCSBuilder/Bots/cb51167496f8ae242407e58de305692e/Source/camlKit/Source/Models/Michelson.swift",
      "line": 18,
      "symbol": "MichelsonConstant.int",
      "symbol_kind": "source.lang.swift.decl.enumelement",
      "warning": "undocumented"
    },
    {
      "file": "/Users/xcodeserver/Library/Caches/XCSBuilder/Bots/cb51167496f8ae242407e58de305692e/Source/camlKit/Source/Models/Michelson.swift",
      "line": 19,
      "symbol": "MichelsonConstant.string",
      "symbol_kind": "source.lang.swift.decl.enumelement",
      "warning": "undocumented"
    },
    {
      "file": "/Users/xcodeserver/Library/Caches/XCSBuilder/Bots/cb51167496f8ae242407e58de305692e/Source/camlKit/Source/Models/Michelson.swift",
      "line": 22,
      "symbol": "MichelsonConstant.pair",
      "symbol_kind": "source.lang.swift.decl.enumelement",
      "warning": "undocumented"
    },
    {
      "file": "/Users/xcodeserver/Library/Caches/XCSBuilder/Bots/cb51167496f8ae242407e58de305692e/Source/camlKit/Source/Models/Michelson.swift",
      "line": 23,
      "symbol": "MichelsonConstant.false",
      "symbol_kind": "source.lang.swift.decl.enumelement",
      "warning": "undocumented"
    },
    {
      "file": "/Users/xcodeserver/Library/Caches/XCSBuilder/Bots/cb51167496f8ae242407e58de305692e/Source/camlKit/Source/Models/Michelson.swift",
      "line": 24,
      "symbol": "MichelsonConstant.true",
      "symbol_kind": "source.lang.swift.decl.enumelement",
      "warning": "undocumented"
    },
    {
      "file": "/Users/xcodeserver/Library/Caches/XCSBuilder/Bots/cb51167496f8ae242407e58de305692e/Source/camlKit/Source/Models/Michelson.swift",
      "line": 31,
      "symbol": "MichelsonParseError.NoKeysMatchingConstantsFound",
      "symbol_kind": "source.lang.swift.decl.enumelement",
      "warning": "undocumented"
    },
    {
      "file": "/Users/xcodeserver/Library/Caches/XCSBuilder/Bots/cb51167496f8ae242407e58de305692e/Source/camlKit/Source/Models/Michelson.swift",
      "line": 116,
      "symbol": "MichelsonPair",
      "symbol_kind": "source.lang.swift.decl.class",
      "warning": "undocumented"
    },
    {
      "file": "/Users/xcodeserver/Library/Caches/XCSBuilder/Bots/cb51167496f8ae242407e58de305692e/Source/camlKit/Source/Models/NetworkConstants.swift",
      "line": 11,
      "symbol": "NetworkConstants",
      "symbol_kind": "source.lang.swift.decl.struct",
      "warning": "undocumented"
    },
    {
      "file": "/Users/xcodeserver/Library/Caches/XCSBuilder/Bots/cb51167496f8ae242407e58de305692e/Source/camlKit/Source/Models/NetworkConstants.swift",
      "line": 12,
      "symbol": "NetworkConstants.time_between_blocks",
      "symbol_kind": "source.lang.swift.decl.var.instance",
      "warning": "undocumented"
    },
    {
      "file": "/Users/xcodeserver/Library/Caches/XCSBuilder/Bots/cb51167496f8ae242407e58de305692e/Source/camlKit/Source/Models/NetworkConstants.swift",
      "line": 13,
      "symbol": "NetworkConstants.hard_gas_limit_per_operation",
      "symbol_kind": "source.lang.swift.decl.var.instance",
      "warning": "undocumented"
    },
    {
      "file": "/Users/xcodeserver/Library/Caches/XCSBuilder/Bots/cb51167496f8ae242407e58de305692e/Source/camlKit/Source/Models/NetworkConstants.swift",
      "line": 14,
      "symbol": "NetworkConstants.hard_gas_limit_per_block",
      "symbol_kind": "source.lang.swift.decl.var.instance",
      "warning": "undocumented"
    },
    {
      "file": "/Users/xcodeserver/Library/Caches/XCSBuilder/Bots/cb51167496f8ae242407e58de305692e/Source/camlKit/Source/Models/NetworkConstants.swift",
      "line": 15,
      "symbol": "NetworkConstants.origination_size",
      "symbol_kind": "source.lang.swift.decl.var.instance",
      "warning": "undocumented"
    },
    {
      "file": "/Users/xcodeserver/Library/Caches/XCSBuilder/Bots/cb51167496f8ae242407e58de305692e/Source/camlKit/Source/Models/NetworkConstants.swift",
      "line": 16,
      "symbol": "NetworkConstants.cost_per_byte",
      "symbol_kind": "source.lang.swift.decl.var.instance",
      "warning": "undocumented"
    },
    {
      "file": "/Users/xcodeserver/Library/Caches/XCSBuilder/Bots/cb51167496f8ae242407e58de305692e/Source/camlKit/Source/Models/NetworkConstants.swift",
      "line": 17,
      "symbol": "NetworkConstants.hard_storage_limit_per_operation",
      "symbol_kind": "source.lang.swift.decl.var.instance",
      "warning": "undocumented"
    },
    {
      "file": "/Users/xcodeserver/Library/Caches/XCSBuilder/Bots/cb51167496f8ae242407e58de305692e/Source/camlKit/Source/Models/NetworkConstants.swift",
      "line": 19,
      "symbol": "NetworkConstants.secondsBetweenBlocks()",
      "symbol_kind": "source.lang.swift.decl.function.method.instance",
      "warning": "undocumented"
    },
    {
      "file": "/Users/xcodeserver/Library/Caches/XCSBuilder/Bots/cb51167496f8ae242407e58de305692e/Source/camlKit/Source/Models/NetworkConstants.swift",
      "line": 23,
      "symbol": "NetworkConstants.mutezPerByte()",
      "symbol_kind": "source.lang.swift.decl.function.method.instance",
      "warning": "undocumented"
    },
    {
      "file": "/Users/xcodeserver/Library/Caches/XCSBuilder/Bots/cb51167496f8ae242407e58de305692e/Source/camlKit/Source/Models/NetworkConstants.swift",
      "line": 27,
      "symbol": "NetworkConstants.xtzPerByte()",
      "symbol_kind": "source.lang.swift.decl.function.method.instance",
      "warning": "undocumented"
    },
    {
      "file": "/Users/xcodeserver/Library/Caches/XCSBuilder/Bots/cb51167496f8ae242407e58de305692e/Source/camlKit/Source/Models/NetworkConstants.swift",
      "line": 31,
      "symbol": "NetworkConstants.maxGasPerOperation()",
      "symbol_kind": "source.lang.swift.decl.function.method.instance",
      "warning": "undocumented"
    },
    {
      "file": "/Users/xcodeserver/Library/Caches/XCSBuilder/Bots/cb51167496f8ae242407e58de305692e/Source/camlKit/Source/Models/NetworkConstants.swift",
      "line": 35,
      "symbol": "NetworkConstants.maxStoragePerOperation()",
      "symbol_kind": "source.lang.swift.decl.function.method.instance",
      "warning": "undocumented"
    },
    {
      "file": "/Users/xcodeserver/Library/Caches/XCSBuilder/Bots/cb51167496f8ae242407e58de305692e/Source/camlKit/Source/Models/NetworkConstants.swift",
      "line": 39,
      "symbol": "NetworkConstants.bytesForReveal()",
      "symbol_kind": "source.lang.swift.decl.function.method.instance",
      "warning": "undocumented"
    },
    {
      "file": "/Users/xcodeserver/Library/Caches/XCSBuilder/Bots/cb51167496f8ae242407e58de305692e/Source/camlKit/Source/Models/NetworkConstants.swift",
      "line": 43,
      "symbol": "NetworkConstants.xtzForReveal()",
      "symbol_kind": "source.lang.swift.decl.function.method.instance",
      "warning": "undocumented"
    },
    {
      "file": "/Users/xcodeserver/Library/Caches/XCSBuilder/Bots/cb51167496f8ae242407e58de305692e/Source/camlKit/Source/Models/NetworkVersion.swift",
      "line": 11,
      "symbol": "TezosChainName",
      "symbol_kind": "source.lang.swift.decl.enum",
      "warning": "undocumented"
    },
    {
      "file": "/Users/xcodeserver/Library/Caches/XCSBuilder/Bots/cb51167496f8ae242407e58de305692e/Source/camlKit/Source/Models/NetworkVersion.swift",
      "line": 12,
      "symbol": "TezosChainName.mainnet",
      "symbol_kind": "source.lang.swift.decl.enumelement",
      "warning": "undocumented"
    },
    {
      "file": "/Users/xcodeserver/Library/Caches/XCSBuilder/Bots/cb51167496f8ae242407e58de305692e/Source/camlKit/Source/Models/NetworkVersion.swift",
      "line": 13,
      "symbol": "TezosChainName.alphanet",
      "symbol_kind": "source.lang.swift.decl.enumelement",
      "warning": "undocumented"
    },
    {
      "file": "/Users/xcodeserver/Library/Caches/XCSBuilder/Bots/cb51167496f8ae242407e58de305692e/Source/camlKit/Source/Models/NetworkVersion.swift",
      "line": 14,
      "symbol": "TezosChainName.babylonnet",
      "symbol_kind": "source.lang.swift.decl.enumelement",
      "warning": "undocumented"
    },
    {
      "file": "/Users/xcodeserver/Library/Caches/XCSBuilder/Bots/cb51167496f8ae242407e58de305692e/Source/camlKit/Source/Models/NetworkVersion.swift",
      "line": 15,
      "symbol": "TezosChainName.carthagenet",
      "symbol_kind": "source.lang.swift.decl.enumelement",
      "warning": "undocumented"
    },
    {
      "file": "/Users/xcodeserver/Library/Caches/XCSBuilder/Bots/cb51167496f8ae242407e58de305692e/Source/camlKit/Source/Models/NetworkVersion.swift",
      "line": 16,
      "symbol": "TezosChainName.delphinet",
      "symbol_kind": "source.lang.swift.decl.enumelement",
      "warning": "undocumented"
    },
    {
      "file": "/Users/xcodeserver/Library/Caches/XCSBuilder/Bots/cb51167496f8ae242407e58de305692e/Source/camlKit/Source/Models/NetworkVersion.swift",
      "line": 17,
      "symbol": "TezosChainName.edonet",
      "symbol_kind": "source.lang.swift.decl.enumelement",
      "warning": "undocumented"
    },
    {
      "file": "/Users/xcodeserver/Library/Caches/XCSBuilder/Bots/cb51167496f8ae242407e58de305692e/Source/camlKit/Source/Models/NetworkVersion.swift",
      "line": 18,
      "symbol": "TezosChainName.unknwon",
      "symbol_kind": "source.lang.swift.decl.enumelement",
      "warning": "undocumented"
    },
    {
      "file": "/Users/xcodeserver/Library/Caches/XCSBuilder/Bots/cb51167496f8ae242407e58de305692e/Source/camlKit/Source/Models/NetworkVersion.swift",
      "line": 21,
      "symbol": "NetworkVersion",
      "symbol_kind": "source.lang.swift.decl.struct",
      "warning": "undocumented"
    },
    {
      "file": "/Users/xcodeserver/Library/Caches/XCSBuilder/Bots/cb51167496f8ae242407e58de305692e/Source/camlKit/Source/Models/NetworkVersion.swift",
      "line": 29,
      "symbol": "NetworkVersion.chainName()",
      "symbol_kind": "source.lang.swift.decl.function.method.instance",
      "warning": "undocumented"
    },
    {
      "file": "/Users/xcodeserver/Library/Caches/XCSBuilder/Bots/cb51167496f8ae242407e58de305692e/Source/camlKit/Source/Models/NetworkVersion.swift",
      "line": 40,
      "symbol": "NetworkVersion.isMainnet()",
      "symbol_kind": "source.lang.swift.decl.function.method.instance",
      "warning": "undocumented"
    },
    {
      "file": "/Users/xcodeserver/Library/Caches/XCSBuilder/Bots/cb51167496f8ae242407e58de305692e/Source/camlKit/Source/Models/Operation/OperationFees.swift",
      "line": 19,
      "symbol": "OperationFees.NetworkFeeType.burnFee",
      "symbol_kind": "source.lang.swift.decl.enumelement",
      "warning": "undocumented"
    },
    {
      "file": "/Users/xcodeserver/Library/Caches/XCSBuilder/Bots/cb51167496f8ae242407e58de305692e/Source/camlKit/Source/Models/Operation/OperationFees.swift",
      "line": 20,
      "symbol": "OperationFees.NetworkFeeType.allocationFee",
      "symbol_kind": "source.lang.swift.decl.enumelement",
      "warning": "undocumented"
    },
    {
      "file": "/Users/xcodeserver/Library/Caches/XCSBuilder/Bots/cb51167496f8ae242407e58de305692e/Source/camlKit/Source/Models/Operation/OperationKind.swift",
      "line": 13,
      "symbol": "OperationKind.transaction",
      "symbol_kind": "source.lang.swift.decl.enumelement",
      "warning": "undocumented"
    },
    {
      "file": "/Users/xcodeserver/Library/Caches/XCSBuilder/Bots/cb51167496f8ae242407e58de305692e/Source/camlKit/Source/Models/Operation/OperationKind.swift",
      "line": 14,
      "symbol": "OperationKind.reveal",
      "symbol_kind": "source.lang.swift.decl.enumelement",
      "warning": "undocumented"
    },
    {
      "file": "/Users/xcodeserver/Library/Caches/XCSBuilder/Bots/cb51167496f8ae242407e58de305692e/Source/camlKit/Source/Models/Operation/OperationKind.swift",
      "line": 15,
      "symbol": "OperationKind.delegation",
      "symbol_kind": "source.lang.swift.decl.enumelement",
      "warning": "undocumented"
    },
    {
      "file": "/Users/xcodeserver/Library/Caches/XCSBuilder/Bots/cb51167496f8ae242407e58de305692e/Source/camlKit/Source/Models/Operation/OperationKind.swift",
      "line": 16,
      "symbol": "OperationKind.origination",
      "symbol_kind": "source.lang.swift.decl.enumelement",
      "warning": "undocumented"
    },
    {
      "file": "/Users/xcodeserver/Library/Caches/XCSBuilder/Bots/cb51167496f8ae242407e58de305692e/Source/camlKit/Source/Models/Operation/OperationKind.swift",
      "line": 17,
      "symbol": "OperationKind.unknown",
      "symbol_kind": "source.lang.swift.decl.enumelement",
      "warning": "undocumented"
    },
    {
      "file": "/Users/xcodeserver/Library/Caches/XCSBuilder/Bots/cb51167496f8ae242407e58de305692e/Source/camlKit/Source/Models/Operation/OperationPayload.swift",
      "line": 58,
      "symbol": "OperationPayload.addProtcol(fromMetadata:)",
      "symbol_kind": "source.lang.swift.decl.function.method.instance",
      "warning": "undocumented"
    },
    {
      "file": "/Users/xcodeserver/Library/Caches/XCSBuilder/Bots/cb51167496f8ae242407e58de305692e/Source/camlKit/Source/Models/Operation/OperationResponse.swift",
      "line": 113,
      "symbol": "OperationResponseInternalResultError.kind",
      "symbol_kind": "source.lang.swift.decl.var.instance",
      "warning": "undocumented"
    },
    {
      "file": "/Users/xcodeserver/Library/Caches/XCSBuilder/Bots/cb51167496f8ae242407e58de305692e/Source/camlKit/Source/Models/Operation/OperationResponse.swift",
      "line": 114,
      "symbol": "OperationResponseInternalResultError.id",
      "symbol_kind": "source.lang.swift.decl.var.instance",
      "warning": "undocumented"
    },
    {
      "file": "/Users/xcodeserver/Library/Caches/XCSBuilder/Bots/cb51167496f8ae242407e58de305692e/Source/camlKit/Source/Models/Operation/OperationResponse.swift",
      "line": 115,
      "symbol": "OperationResponseInternalResultError.location",
      "symbol_kind": "source.lang.swift.decl.var.instance",
      "warning": "undocumented"
    },
    {
      "file": "/Users/xcodeserver/Library/Caches/XCSBuilder/Bots/cb51167496f8ae242407e58de305692e/Source/camlKit/Source/Models/Operation/OperationResponse.swift",
      "line": 116,
      "symbol": "OperationResponseInternalResultError.with",
      "symbol_kind": "source.lang.swift.decl.var.instance",
      "warning": "undocumented"
    },
    {
      "file": "/Users/xcodeserver/Library/Caches/XCSBuilder/Bots/cb51167496f8ae242407e58de305692e/Source/camlKit/Source/Models/Operation/OperationResponse.swift",
      "line": 121,
      "symbol": "OperationResponseInternalResultErrorWith.string",
      "symbol_kind": "source.lang.swift.decl.var.instance",
      "warning": "undocumented"
    },
    {
      "file": "/Users/xcodeserver/Library/Caches/XCSBuilder/Bots/cb51167496f8ae242407e58de305692e/Source/camlKit/Source/Models/Operation/OperationResponse.swift",
      "line": 122,
      "symbol": "OperationResponseInternalResultErrorWith.args",
      "symbol_kind": "source.lang.swift.decl.var.instance",
      "warning": "undocumented"
    },
    {
      "file": "/Users/xcodeserver/Library/Caches/XCSBuilder/Bots/cb51167496f8ae242407e58de305692e/Source/camlKit/Source/Models/Operation/OperationReveal.swift",
      "line": 14,
      "symbol": "OperationReveal.publicKey",
      "symbol_kind": "source.lang.swift.decl.var.instance",
      "warning": "undocumented"
    },
    {
      "file": "/Users/xcodeserver/Library/Caches/XCSBuilder/Bots/cb51167496f8ae242407e58de305692e/Source/camlKit/Source/Models/Operation/OperationTransaction.swift",
      "line": 18,
      "symbol": "OperationTransaction.destination",
      "symbol_kind": "source.lang.swift.decl.var.instance",
      "warning": "undocumented"
    },
    {
      "file": "/Users/xcodeserver/Library/Caches/XCSBuilder/Bots/cb51167496f8ae242407e58de305692e/Source/camlKit/Source/Models/Operation/RunOperationPayload.swift",
      "line": 11,
      "symbol": "RunOperationPayload",
      "symbol_kind": "source.lang.swift.decl.struct",
      "warning": "undocumented"
    },
    {
      "file": "/Users/xcodeserver/Library/Caches/XCSBuilder/Bots/cb51167496f8ae242407e58de305692e/Source/camlKit/Source/Models/Token.swift",
      "line": 20,
      "symbol": "Token.TokenType.xtz",
      "symbol_kind": "source.lang.swift.decl.enumelement",
      "warning": "undocumented"
    },
    {
      "file": "/Users/xcodeserver/Library/Caches/XCSBuilder/Bots/cb51167496f8ae242407e58de305692e/Source/camlKit/Source/Models/Token.swift",
      "line": 21,
      "symbol": "Token.TokenType.fa1_2",
      "symbol_kind": "source.lang.swift.decl.enumelement",
      "warning": "undocumented"
    },
    {
      "file": "/Users/xcodeserver/Library/Caches/XCSBuilder/Bots/cb51167496f8ae242407e58de305692e/Source/camlKit/Source/Models/TokenAmount.swift",
      "line": 17,
      "symbol": "TokenAmount.TokenAmountError",
      "symbol_kind": "source.lang.swift.decl.enum",
      "warning": "undocumented"
    },
    {
      "file": "/Users/xcodeserver/Library/Caches/XCSBuilder/Bots/cb51167496f8ae242407e58de305692e/Source/camlKit/Source/Models/TokenAmount.swift",
      "line": 18,
      "symbol": "TokenAmount.TokenAmountError.invalidStringFromRPC",
      "symbol_kind": "source.lang.swift.decl.enumelement",
      "warning": "undocumented"
    },
    {
      "file": "/Users/xcodeserver/Library/Caches/XCSBuilder/Bots/cb51167496f8ae242407e58de305692e/Source/camlKit/Source/Models/Wallet.swift",
      "line": 16,
      "symbol": "WalletType.linear",
      "symbol_kind": "source.lang.swift.decl.enumelement",
      "warning": "undocumented"
    },
    {
      "file": "/Users/xcodeserver/Library/Caches/XCSBuilder/Bots/cb51167496f8ae242407e58de305692e/Source/camlKit/Source/Models/Wallet.swift",
      "line": 17,
      "symbol": "WalletType.hd",
      "symbol_kind": "source.lang.swift.decl.enumelement",
      "warning": "undocumented"
    },
    {
      "file": "/Users/xcodeserver/Library/Caches/XCSBuilder/Bots/cb51167496f8ae242407e58de305692e/Source/camlKit/Source/Models/Wallet.swift",
      "line": 22,
      "symbol": "MnemonicPhraseLength.twelve",
      "symbol_kind": "source.lang.swift.decl.enumelement",
      "warning": "undocumented"
    },
    {
      "file": "/Users/xcodeserver/Library/Caches/XCSBuilder/Bots/cb51167496f8ae242407e58de305692e/Source/camlKit/Source/Models/Wallet.swift",
      "line": 23,
      "symbol": "MnemonicPhraseLength.fifteen",
      "symbol_kind": "source.lang.swift.decl.enumelement",
      "warning": "undocumented"
    },
    {
      "file": "/Users/xcodeserver/Library/Caches/XCSBuilder/Bots/cb51167496f8ae242407e58de305692e/Source/camlKit/Source/Models/Wallet.swift",
      "line": 24,
      "symbol": "MnemonicPhraseLength.eighteen",
      "symbol_kind": "source.lang.swift.decl.enumelement",
      "warning": "undocumented"
    },
    {
      "file": "/Users/xcodeserver/Library/Caches/XCSBuilder/Bots/cb51167496f8ae242407e58de305692e/Source/camlKit/Source/Models/Wallet.swift",
      "line": 25,
      "symbol": "MnemonicPhraseLength.twentyOne",
      "symbol_kind": "source.lang.swift.decl.enumelement",
      "warning": "undocumented"
    },
    {
      "file": "/Users/xcodeserver/Library/Caches/XCSBuilder/Bots/cb51167496f8ae242407e58de305692e/Source/camlKit/Source/Models/Wallet.swift",
      "line": 26,
      "symbol": "MnemonicPhraseLength.twentyFour",
      "symbol_kind": "source.lang.swift.decl.enumelement",
      "warning": "undocumented"
    },
    {
      "file": "/Users/xcodeserver/Library/Caches/XCSBuilder/Bots/cb51167496f8ae242407e58de305692e/Source/camlKit/Source/Models/Wallet.swift",
      "line": 31,
      "symbol": "EllipticalCurve.ed25519",
      "symbol_kind": "source.lang.swift.decl.enumelement",
      "warning": "undocumented"
    },
    {
      "file": "/Users/xcodeserver/Library/Caches/XCSBuilder/Bots/cb51167496f8ae242407e58de305692e/Source/camlKit/Source/Models/Wallet.swift",
      "line": 32,
      "symbol": "EllipticalCurve.secp256k1",
      "symbol_kind": "source.lang.swift.decl.enumelement",
      "warning": "undocumented"
    },
    {
      "file": "/Users/xcodeserver/Library/Caches/XCSBuilder/Bots/cb51167496f8ae242407e58de305692e/Source/camlKit/Source/Services/DexterCalculationService.swift",
      "line": 46,
      "symbol": "DexterCalculationService.DexterCalculationResult.expected",
      "symbol_kind": "source.lang.swift.decl.var.instance",
      "warning": "undocumented"
    },
    {
      "file": "/Users/xcodeserver/Library/Caches/XCSBuilder/Bots/cb51167496f8ae242407e58de305692e/Source/camlKit/Source/Services/DexterCalculationService.swift",
      "line": 47,
      "symbol": "DexterCalculationService.DexterCalculationResult.minimum",
      "symbol_kind": "source.lang.swift.decl.var.instance",
      "warning": "undocumented"
    },
    {
      "file": "/Users/xcodeserver/Library/Caches/XCSBuilder/Bots/cb51167496f8ae242407e58de305692e/Source/camlKit/Source/Services/DexterCalculationService.swift",
      "line": 48,
      "symbol": "DexterCalculationService.DexterCalculationResult.displayExchangeRate",
      "symbol_kind": "source.lang.swift.decl.var.instance",
      "warning": "undocumented"
    },
    {
      "file": "/Users/xcodeserver/Library/Caches/XCSBuilder/Bots/cb51167496f8ae242407e58de305692e/Source/camlKit/Source/Services/DexterCalculationService.swift",
      "line": 49,
      "symbol": "DexterCalculationService.DexterCalculationResult.displayPriceImpact",
      "symbol_kind": "source.lang.swift.decl.var.instance",
      "warning": "undocumented"
    },
    {
      "file": "/Users/xcodeserver/Library/Caches/XCSBuilder/Bots/cb51167496f8ae242407e58de305692e/Source/camlKit/Source/Services/ErrorHandlingService.swift",
      "line": 14,
      "symbol": "ErrorResponseType",
      "symbol_kind": "source.lang.swift.decl.enum",
      "warning": "undocumented"
    },
    {
      "file": "/Users/xcodeserver/Library/Caches/XCSBuilder/Bots/cb51167496f8ae242407e58de305692e/Source/camlKit/Source/Services/ErrorHandlingService.swift",
      "line": 15,
      "symbol": "ErrorResponseType.unknownError",
      "symbol_kind": "source.lang.swift.decl.enumelement",
      "warning": "undocumented"
    },
    {
      "file": "/Users/xcodeserver/Library/Caches/XCSBuilder/Bots/cb51167496f8ae242407e58de305692e/Source/camlKit/Source/Services/ErrorHandlingService.swift",
      "line": 16,
      "symbol": "ErrorResponseType.unknownWallet",
      "symbol_kind": "source.lang.swift.decl.enumelement",
      "warning": "undocumented"
    },
    {
      "file": "/Users/xcodeserver/Library/Caches/XCSBuilder/Bots/cb51167496f8ae242407e58de305692e/Source/camlKit/Source/Services/ErrorHandlingService.swift",
      "line": 17,
      "symbol": "ErrorResponseType.unknownBalance",
      "symbol_kind": "source.lang.swift.decl.enumelement",
      "warning": "undocumented"
    },
    {
      "file": "/Users/xcodeserver/Library/Caches/XCSBuilder/Bots/cb51167496f8ae242407e58de305692e/Source/camlKit/Source/Services/ErrorHandlingService.swift",
      "line": 18,
      "symbol": "ErrorResponseType.unknownParseError",
      "symbol_kind": "source.lang.swift.decl.enumelement",
      "warning": "undocumented"
    },
    {
      "file": "/Users/xcodeserver/Library/Caches/XCSBuilder/Bots/cb51167496f8ae242407e58de305692e/Source/camlKit/Source/Services/ErrorHandlingService.swift",
      "line": 19,
      "symbol": "ErrorResponseType.internalApplicationError",
      "symbol_kind": "source.lang.swift.decl.enumelement",
      "warning": "undocumented"
    },
    {
      "file": "/Users/xcodeserver/Library/Caches/XCSBuilder/Bots/cb51167496f8ae242407e58de305692e/Source/camlKit/Source/Services/ErrorHandlingService.swift",
      "line": 21,
      "symbol": "ErrorResponseType.noInternetConnection",
      "symbol_kind": "source.lang.swift.decl.enumelement",
      "warning": "undocumented"
    },
    {
      "file": "/Users/xcodeserver/Library/Caches/XCSBuilder/Bots/cb51167496f8ae242407e58de305692e/Source/camlKit/Source/Services/ErrorHandlingService.swift",
      "line": 22,
      "symbol": "ErrorResponseType.spendingLimitExceeded",
      "symbol_kind": "source.lang.swift.decl.enumelement",
      "warning": "undocumented"
    },
    {
      "file": "/Users/xcodeserver/Library/Caches/XCSBuilder/Bots/cb51167496f8ae242407e58de305692e/Source/camlKit/Source/Services/ErrorHandlingService.swift",
      "line": 23,
      "symbol": "ErrorResponseType.exchangeDataOutOfSync",
      "symbol_kind": "source.lang.swift.decl.enumelement",
      "warning": "undocumented"
    },
    {
      "file": "/Users/xcodeserver/Library/Caches/XCSBuilder/Bots/cb51167496f8ae242407e58de305692e/Source/camlKit/Source/Services/ErrorHandlingService.swift",
      "line": 24,
      "symbol": "ErrorResponseType.exchangeHigherThanZero",
      "symbol_kind": "source.lang.swift.decl.enumelement",
      "warning": "undocumented"
    },
    {
      "file": "/Users/xcodeserver/Library/Caches/XCSBuilder/Bots/cb51167496f8ae242407e58de305692e/Source/camlKit/Source/Services/ErrorHandlingService.swift",
      "line": 25,
      "symbol": "ErrorResponseType.insufficientFunds",
      "symbol_kind": "source.lang.swift.decl.enumelement",
      "warning": "undocumented"
    },
    {
      "file": "/Users/xcodeserver/Library/Caches/XCSBuilder/Bots/cb51167496f8ae242407e58de305692e/Source/camlKit/Source/Services/ErrorHandlingService.swift",
      "line": 26,
      "symbol": "ErrorResponseType.insufficientFundsDelegation",
      "symbol_kind": "source.lang.swift.decl.enumelement",
      "warning": "undocumented"
    },
    {
      "file": "/Users/xcodeserver/Library/Caches/XCSBuilder/Bots/cb51167496f8ae242407e58de305692e/Source/camlKit/Source/Services/ErrorHandlingService.swift",
      "line": 27,
      "symbol": "ErrorResponseType.delegationUnchanged",
      "symbol_kind": "source.lang.swift.decl.enumelement",
      "warning": "undocumented"
    },
    {
      "file": "/Users/xcodeserver/Library/Caches/XCSBuilder/Bots/cb51167496f8ae242407e58de305692e/Source/camlKit/Source/Services/ErrorHandlingService.swift",
      "line": 28,
      "symbol": "ErrorResponseType.emptyTransaction",
      "symbol_kind": "source.lang.swift.decl.enumelement",
      "warning": "undocumented"
    },
    {
      "file": "/Users/xcodeserver/Library/Caches/XCSBuilder/Bots/cb51167496f8ae242407e58de305692e/Source/camlKit/Source/Services/ErrorHandlingService.swift",
      "line": 29,
      "symbol": "ErrorResponseType.invalidAddress",
      "symbol_kind": "source.lang.swift.decl.enumelement",
      "warning": "undocumented"
    },
    {
      "file": "/Users/xcodeserver/Library/Caches/XCSBuilder/Bots/cb51167496f8ae242407e58de305692e/Source/camlKit/Source/Services/ErrorHandlingService.swift",
      "line": 30,
      "symbol": "ErrorResponseType.bakerCantDelegate",
      "symbol_kind": "source.lang.swift.decl.enumelement",
      "warning": "undocumented"
    },
    {
      "file": "/Users/xcodeserver/Library/Caches/XCSBuilder/Bots/cb51167496f8ae242407e58de305692e/Source/camlKit/Source/Services/ErrorHandlingService.swift",
      "line": 31,
      "symbol": "ErrorResponseType.invalidBaker",
      "symbol_kind": "source.lang.swift.decl.enumelement",
      "warning": "undocumented"
    },
    {
      "file": "/Users/xcodeserver/Library/Caches/XCSBuilder/Bots/cb51167496f8ae242407e58de305692e/Source/camlKit/Source/Services/ErrorHandlingService.swift",
      "line": 32,
      "symbol": "ErrorResponseType.exchangeTimeout",
      "symbol_kind": "source.lang.swift.decl.enumelement",
      "warning": "undocumented"
    },
    {
      "file": "/Users/xcodeserver/Library/Caches/XCSBuilder/Bots/cb51167496f8ae242407e58de305692e/Source/camlKit/Source/Services/ErrorHandlingService.swift",
      "line": 33,
      "symbol": "ErrorResponseType.exchangeNotEnoughFa",
      "symbol_kind": "source.lang.swift.decl.enumelement",
      "warning": "undocumented"
    },
    {
      "file": "/Users/xcodeserver/Library/Caches/XCSBuilder/Bots/cb51167496f8ae242407e58de305692e/Source/camlKit/Source/Services/ErrorHandlingService.swift",
      "line": 34,
      "symbol": "ErrorResponseType.exchangeNotEnoughTez",
      "symbol_kind": "source.lang.swift.decl.enumelement",
      "warning": "undocumented"
    },
    {
      "file": "/Users/xcodeserver/Library/Caches/XCSBuilder/Bots/cb51167496f8ae242407e58de305692e/Source/camlKit/Source/Services/ErrorHandlingService.swift",
      "line": 36,
      "symbol": "ErrorResponseType.tokenToTokenUnavailable",
      "symbol_kind": "source.lang.swift.decl.enumelement",
      "warning": "undocumented"
    },
    {
      "file": "/Users/xcodeserver/Library/Caches/XCSBuilder/Bots/cb51167496f8ae242407e58de305692e/Source/camlKit/Source/Services/ErrorHandlingService.swift",
      "line": 37,
      "symbol": "ErrorResponseType.counterError",
      "symbol_kind": "source.lang.swift.decl.enumelement",
      "warning": "undocumented"
    },
    {
      "file": "/Users/xcodeserver/Library/Caches/XCSBuilder/Bots/cb51167496f8ae242407e58de305692e/Source/camlKit/Source/Services/ErrorHandlingService.swift",
      "line": 38,
      "symbol": "ErrorResponseType.dexterNotEnoughFA",
      "symbol_kind": "source.lang.swift.decl.enumelement",
      "warning": "undocumented"
    },
    {
      "file": "/Users/xcodeserver/Library/Caches/XCSBuilder/Bots/cb51167496f8ae242407e58de305692e/Source/camlKit/Source/Services/ErrorHandlingService.swift",
      "line": 39,
      "symbol": "ErrorResponseType.dexterNotEnoughTez",
      "symbol_kind": "source.lang.swift.decl.enumelement",
      "warning": "undocumented"
    },
    {
      "file": "/Users/xcodeserver/Library/Caches/XCSBuilder/Bots/cb51167496f8ae242407e58de305692e/Source/camlKit/Source/Services/ErrorHandlingService.swift",
      "line": 42,
      "symbol": "ErrorResponse",
      "symbol_kind": "source.lang.swift.decl.struct",
      "warning": "undocumented"
    },
    {
      "file": "/Users/xcodeserver/Library/Caches/XCSBuilder/Bots/cb51167496f8ae242407e58de305692e/Source/camlKit/Source/Services/ErrorHandlingService.swift",
      "line": 43,
      "symbol": "ErrorResponse.requestURL",
      "symbol_kind": "source.lang.swift.decl.var.instance",
      "warning": "undocumented"
    },
    {
      "file": "/Users/xcodeserver/Library/Caches/XCSBuilder/Bots/cb51167496f8ae242407e58de305692e/Source/camlKit/Source/Services/ErrorHandlingService.swift",
      "line": 44,
      "symbol": "ErrorResponse.requestJSON",
      "symbol_kind": "source.lang.swift.decl.var.instance",
      "warning": "undocumented"
    },
    {
      "file": "/Users/xcodeserver/Library/Caches/XCSBuilder/Bots/cb51167496f8ae242407e58de305692e/Source/camlKit/Source/Services/ErrorHandlingService.swift",
      "line": 45,
      "symbol": "ErrorResponse.responseJSON",
      "symbol_kind": "source.lang.swift.decl.var.instance",
      "warning": "undocumented"
    },
    {
      "file": "/Users/xcodeserver/Library/Caches/XCSBuilder/Bots/cb51167496f8ae242407e58de305692e/Source/camlKit/Source/Services/ErrorHandlingService.swift",
      "line": 46,
      "symbol": "ErrorResponse.httpStatusCode",
      "symbol_kind": "source.lang.swift.decl.var.instance",
      "warning": "undocumented"
    },
    {
      "file": "/Users/xcodeserver/Library/Caches/XCSBuilder/Bots/cb51167496f8ae242407e58de305692e/Source/camlKit/Source/Services/ErrorHandlingService.swift",
      "line": 47,
      "symbol": "ErrorResponse.errorObject",
      "symbol_kind": "source.lang.swift.decl.var.instance",
      "warning": "undocumented"
    },
    {
      "file": "/Users/xcodeserver/Library/Caches/XCSBuilder/Bots/cb51167496f8ae242407e58de305692e/Source/camlKit/Source/Services/ErrorHandlingService.swift",
      "line": 48,
      "symbol": "ErrorResponse.errorString",
      "symbol_kind": "source.lang.swift.decl.var.instance",
      "warning": "undocumented"
    },
    {
      "file": "/Users/xcodeserver/Library/Caches/XCSBuilder/Bots/cb51167496f8ae242407e58de305692e/Source/camlKit/Source/Services/ErrorHandlingService.swift",
      "line": 50,
      "symbol": "ErrorResponse.errorType",
      "symbol_kind": "source.lang.swift.decl.var.instance",
      "warning": "undocumented"
    },
    {
      "file": "/Users/xcodeserver/Library/Caches/XCSBuilder/Bots/cb51167496f8ae242407e58de305692e/Source/camlKit/Source/Services/ErrorHandlingService.swift",
      "line": 62,
      "symbol": "ErrorResponse.error(string:errorType:)",
      "symbol_kind": "source.lang.swift.decl.function.method.static",
      "warning": "undocumented"
    },
    {
      "file": "/Users/xcodeserver/Library/Caches/XCSBuilder/Bots/cb51167496f8ae242407e58de305692e/Source/camlKit/Source/Services/ErrorHandlingService.swift",
      "line": 66,
      "symbol": "ErrorResponse.internalApplicationError(error:)",
      "symbol_kind": "source.lang.swift.decl.function.method.static",
      "warning": "undocumented"
    },
    {
      "file": "/Users/xcodeserver/Library/Caches/XCSBuilder/Bots/cb51167496f8ae242407e58de305692e/Source/camlKit/Source/Services/ErrorHandlingService.swift",
      "line": 70,
      "symbol": "ErrorResponse.unknownParseError(error:)",
      "symbol_kind": "source.lang.swift.decl.function.method.static",
      "warning": "undocumented"
    },
    {
      "file": "/Users/xcodeserver/Library/Caches/XCSBuilder/Bots/cb51167496f8ae242407e58de305692e/Source/camlKit/Source/Services/ErrorHandlingService.swift",
      "line": 74,
      "symbol": "ErrorResponse.unknownError()",
      "symbol_kind": "source.lang.swift.decl.function.method.static",
      "warning": "undocumented"
    },
    {
      "file": "/Users/xcodeserver/Library/Caches/XCSBuilder/Bots/cb51167496f8ae242407e58de305692e/Source/camlKit/Source/Services/ErrorHandlingService.swift",
      "line": 83,
      "symbol": "ErrorHandlingService",
      "symbol_kind": "source.lang.swift.decl.class",
      "warning": "undocumented"
    },
    {
      "file": "/Users/xcodeserver/Library/Caches/XCSBuilder/Bots/cb51167496f8ae242407e58de305692e/Source/camlKit/Source/Services/ErrorHandlingService.swift",
      "line": 88,
      "symbol": "ErrorHandlingService.shared",
      "symbol_kind": "source.lang.swift.decl.var.static",
      "warning": "undocumented"
    },
    {
      "file": "/Users/xcodeserver/Library/Caches/XCSBuilder/Bots/cb51167496f8ae242407e58de305692e/Source/camlKit/Source/Services/ErrorHandlingService.swift",
      "line": 89,
      "symbol": "ErrorHandlingService.errorEventClosure",
      "symbol_kind": "source.lang.swift.decl.var.instance",
      "warning": "undocumented"
    },
    {
      "file": "/Users/xcodeserver/Library/Caches/XCSBuilder/Bots/cb51167496f8ae242407e58de305692e/Source/camlKit/Source/Services/ErrorHandlingService.swift",
      "line": 97,
      "symbol": "ErrorHandlingService.parse(string:andLog:)",
      "symbol_kind": "source.lang.swift.decl.function.method.class",
      "warning": "undocumented"
    },
    {
      "file": "/Users/xcodeserver/Library/Caches/XCSBuilder/Bots/cb51167496f8ae242407e58de305692e/Source/camlKit/Source/Services/ErrorHandlingService.swift",
      "line": 176,
      "symbol": "ErrorHandlingService.parse(data:response:networkError:requestURL:requestData:)",
      "symbol_kind": "source.lang.swift.decl.function.method.class",
      "warning": "undocumented"
    },
    {
      "file": "/Users/xcodeserver/Library/Caches/XCSBuilder/Bots/cb51167496f8ae242407e58de305692e/Source/camlKit/Source/Services/ErrorHandlingService.swift",
      "line": 210,
      "symbol": "ErrorHandlingService.containsErrors(tzktOperations:)",
      "symbol_kind": "source.lang.swift.decl.function.method.class",
      "warning": "undocumented"
    },
    {
      "file": "/Users/xcodeserver/Library/Caches/XCSBuilder/Bots/cb51167496f8ae242407e58de305692e/Source/camlKit/Source/Services/FeeEstimatorService.swift",
      "line": 18,
      "symbol": "FeeEstimatorService.defaultSignatureHex",
      "symbol_kind": "source.lang.swift.decl.var.static",
      "warning": "undocumented"
    },
    {
      "file": "/Users/xcodeserver/Library/Caches/XCSBuilder/Bots/cb51167496f8ae242407e58de305692e/Source/camlKit/Source/Services/FeeEstimatorService.swift",
      "line": 38,
      "symbol": "FeeEstimatorService.FeeEstimatorServiceError.tezosNodeClientNotPresent",
      "symbol_kind": "source.lang.swift.decl.enumelement",
      "warning": "undocumented"
    },
    {
      "file": "/Users/xcodeserver/Library/Caches/XCSBuilder/Bots/cb51167496f8ae242407e58de305692e/Source/camlKit/Source/Services/FeeEstimatorService.swift",
      "line": 39,
      "symbol": "FeeEstimatorService.FeeEstimatorServiceError.unableToSetupRunOperation",
      "symbol_kind": "source.lang.swift.decl.enumelement",
      "warning": "undocumented"
    },
    {
      "file": "/Users/xcodeserver/Library/Caches/XCSBuilder/Bots/cb51167496f8ae242407e58de305692e/Source/camlKit/Source/Services/FeeEstimatorService.swift",
      "line": 40,
      "symbol": "FeeEstimatorService.FeeEstimatorServiceError.invalidNumberOfFeesReturned",
      "symbol_kind": "source.lang.swift.decl.enumelement",
      "warning": "undocumented"
    },
    {
      "file": "/Users/xcodeserver/Library/Caches/XCSBuilder/Bots/cb51167496f8ae242407e58de305692e/Source/camlKit/Source/Services/FeeEstimatorService.swift",
      "line": 41,
      "symbol": "FeeEstimatorService.FeeEstimatorServiceError.estimationRemoteError(errors:)",
      "symbol_kind": "source.lang.swift.decl.enumelement",
      "warning": "undocumented"
    },
    {
      "file": "/Users/xcodeserver/Library/Caches/XCSBuilder/Bots/cb51167496f8ae242407e58de305692e/Source/camlKit/Source/Services/InDEXTerService.swift",
      "line": 19,
      "symbol": "InDEXTerService.InDEXTerServiceError.invalidURL",
      "symbol_kind": "source.lang.swift.decl.enumelement",
      "warning": "undocumented"
    },
    {
      "file": "/Users/xcodeserver/Library/Caches/XCSBuilder/Bots/cb51167496f8ae242407e58de305692e/Source/camlKit/Source/Services/InDEXTerService.swift",
      "line": 20,
      "symbol": "InDEXTerService.InDEXTerServiceError.invalidToken",
      "symbol_kind": "source.lang.swift.decl.enumelement",
      "warning": "undocumented"
    },
    {
      "file": "/Users/xcodeserver/Library/Caches/XCSBuilder/Bots/cb51167496f8ae242407e58de305692e/Source/camlKit/Source/Services/InDEXTerService.swift",
      "line": 21,
      "symbol": "InDEXTerService.InDEXTerServiceError.parsingError",
      "symbol_kind": "source.lang.swift.decl.enumelement",
      "warning": "undocumented"
    },
    {
      "file": "/Users/xcodeserver/Library/Caches/XCSBuilder/Bots/cb51167496f8ae242407e58de305692e/Source/camlKit/Source/Services/InDEXTerService.swift",
      "line": 22,
      "symbol": "InDEXTerService.InDEXTerServiceError.serverError(_:)",
      "symbol_kind": "source.lang.swift.decl.enumelement",
      "warning": "undocumented"
    },
    {
      "file": "/Users/xcodeserver/Library/Caches/XCSBuilder/Bots/cb51167496f8ae242407e58de305692e/Source/camlKit/Source/Services/NetworkService.swift",
      "line": 19,
      "symbol": "NetworkService.NetworkError.parse(error:)",
      "symbol_kind": "source.lang.swift.decl.enumelement",
      "warning": "undocumented"
    },
    {
      "file": "/Users/xcodeserver/Library/Caches/XCSBuilder/Bots/cb51167496f8ae242407e58de305692e/Source/camlKit/Source/Services/NetworkService.swift",
      "line": 20,
      "symbol": "NetworkService.NetworkError.invalidURL",
      "symbol_kind": "source.lang.swift.decl.enumelement",
      "warning": "undocumented"
    },
    {
      "file": "/Users/xcodeserver/Library/Caches/XCSBuilder/Bots/cb51167496f8ae242407e58de305692e/Source/camlKit/Source/Services/NetworkService.swift",
      "line": 21,
      "symbol": "NetworkService.NetworkError.unknown",
      "symbol_kind": "source.lang.swift.decl.enumelement",
      "warning": "undocumented"
    },
    {
      "file": "/Users/xcodeserver/Library/Caches/XCSBuilder/Bots/cb51167496f8ae242407e58de305692e/Source/camlKit/Source/Services/NetworkService.swift",
      "line": 22,
      "symbol": "NetworkService.NetworkError.httpError(statusCode:response:)",
      "symbol_kind": "source.lang.swift.decl.enumelement",
      "warning": "undocumented"
    },
    {
      "file": "/Users/xcodeserver/Library/Caches/XCSBuilder/Bots/cb51167496f8ae242407e58de305692e/Source/camlKit/Source/Services/OperationService.swift",
      "line": 13,
      "symbol": "OperationService",
      "symbol_kind": "source.lang.swift.decl.class",
      "warning": "undocumented"
    },
    {
      "file": "/Users/xcodeserver/Library/Caches/XCSBuilder/Bots/cb51167496f8ae242407e58de305692e/Source/camlKit/Source/Services/OperationService.swift",
      "line": 17,
      "symbol": "OperationService.OperationServiceError.unableToSetupForge",
      "symbol_kind": "source.lang.swift.decl.enumelement",
      "warning": "undocumented"
    },
    {
      "file": "/Users/xcodeserver/Library/Caches/XCSBuilder/Bots/cb51167496f8ae242407e58de305692e/Source/camlKit/Source/Services/OperationService.swift",
      "line": 18,
      "symbol": "OperationService.OperationServiceError.unableToSetupParse",
      "symbol_kind": "source.lang.swift.decl.enumelement",
      "warning": "undocumented"
    },
    {
      "file": "/Users/xcodeserver/Library/Caches/XCSBuilder/Bots/cb51167496f8ae242407e58de305692e/Source/camlKit/Source/Services/OperationService.swift",
      "line": 19,
      "symbol": "OperationService.OperationServiceError.parseFailed",
      "symbol_kind": "source.lang.swift.decl.enumelement",
      "warning": "undocumented"
    },
    {
      "file": "/Users/xcodeserver/Library/Caches/XCSBuilder/Bots/cb51167496f8ae242407e58de305692e/Source/camlKit/Source/Services/OperationService.swift",
      "line": 20,
      "symbol": "OperationService.OperationServiceError.signingFailure",
      "symbol_kind": "source.lang.swift.decl.enumelement",
      "warning": "undocumented"
    },
    {
      "file": "/Users/xcodeserver/Library/Caches/XCSBuilder/Bots/cb51167496f8ae242407e58de305692e/Source/camlKit/Source/Services/OperationService.swift",
      "line": 21,
      "symbol": "OperationService.OperationServiceError.unableToSetupPreapply",
      "symbol_kind": "source.lang.swift.decl.enumelement",
      "warning": "undocumented"
    },
    {
      "file": "/Users/xcodeserver/Library/Caches/XCSBuilder/Bots/cb51167496f8ae242407e58de305692e/Source/camlKit/Source/Services/OperationService.swift",
      "line": 22,
      "symbol": "OperationService.OperationServiceError.preapplyContainedError(errors:)",
      "symbol_kind": "source.lang.swift.decl.enumelement",
      "warning": "undocumented"
    },
    {
      "file": "/Users/xcodeserver/Library/Caches/XCSBuilder/Bots/cb51167496f8ae242407e58de305692e/Source/camlKit/Source/Services/OperationService.swift",
      "line": 23,
      "symbol": "OperationService.OperationServiceError.unableToSetupInject",
      "symbol_kind": "source.lang.swift.decl.enumelement",
      "warning": "undocumented"
    }
  ],
  "source_directory": "/Users/xcodeserver/Library/Caches/XCSBuilder/Bots/cb51167496f8ae242407e58de305692e/Source/camlKit"
}